movie_cast_cn,movie_director_cn,movie_douban_score,movie_douban_url,movie_name_cn
"科林·费尔斯,杰弗里·拉什,海伦娜·伯翰·卡特,盖·皮尔斯,迈克尔·刚本",汤姆·霍珀,8.3,https://movie.douban.com/subject/4023638/,国王的演讲
"梅利莎·乔治,利亚姆·海姆斯沃斯,迈克尔·多曼,瑞秋·卡帕尼,艾玛·朗",克里斯托弗·史密斯,8.3,https://movie.douban.com/subject/3011051/,恐怖游轮
"基努·里维斯,凯瑞-安·莫斯,劳伦斯·菲什伯恩,雨果·维文,格洛丽亚·福斯特","莉莉·沃卓斯基,拉娜·沃卓斯基",8.8,https://movie.douban.com/subject/1291843/,黑客帝国
"安德鲁·加菲尔德,萨姆·沃辛顿,文斯·沃恩,雨果·维文,卢克·布雷西",梅尔·吉布森,8.7,https://movie.douban.com/subject/26325320/,血战钢锯岭
"莱昂纳多·迪卡普里奥,凯瑞·穆里根,托比·马奎尔,艾拉·菲舍尔,乔尔·埃哲顿",巴兹·鲁赫曼,7.7,https://movie.douban.com/subject/3364223/,了不起的盖茨比
"托妮·科莱特,菲利普·塞默·霍夫曼,巴瑞·哈姆弗莱斯,艾瑞克·巴纳,贝塔尼·维特莫尔",亚当·艾略特,8.9,https://movie.douban.com/subject/3072124/,玛丽和马克思
"约翰尼·德普,弗莱迪·海默,海伦娜·伯翰·卡特,克里斯托弗·李,诺亚·泰勒",蒂姆·波顿,7.9,https://movie.douban.com/subject/1309101/,查理和巧克力工厂
"艾伯特·布鲁克斯,艾伦·德杰尼勒斯,亚历山大·古尔德,威廉·达福,布拉德·加内特","安德鲁·斯坦顿,李·昂克里奇",8.2,https://movie.douban.com/subject/1291586/,海底总动员
"汤姆·哈迪,查理兹·塞隆,尼古拉斯·霍尔特,休·基斯-拜恩,乔什·赫尔曼",乔治·米勒,8.5,https://movie.douban.com/subject/3592854/,疯狂的麦克斯4：狂暴之路
"基努·里维斯,劳伦斯·菲什伯恩,凯瑞-安·莫斯,莫妮卡·贝鲁奇,凯特·宾汉","莉莉·沃卓斯基,拉娜·沃卓斯基",8.5,https://movie.douban.com/subject/1302467/,黑客帝国3：矩阵革命
"基努·里维斯,凯瑞-安·莫斯,劳伦斯·菲什伯恩,雨果·维文,莫妮卡·贝鲁奇","莉莉·沃卓斯基,拉娜·沃卓斯基",8.4,https://movie.douban.com/subject/1304141/,黑客帝国2：重装上阵
"汤姆·希德勒斯顿,布丽·拉尔森,塞缪尔·杰克逊,约翰·古德曼,景甜",乔丹·沃格特-罗伯茨,6.7,https://movie.douban.com/subject/26309788/,金刚：骷髅岛
"米拉·乔沃维奇,奥德·菲尔,伊恩·格雷,艾丽·拉特,亚香缇",拉塞尔·穆卡希,7.1,https://movie.douban.com/subject/1482911/,生化危机3：灭绝
"妮可·基德曼,伊万·麦克格雷格,约翰·雷吉扎莫,吉姆·布劳德本特,理查德·劳斯伯格",巴兹·鲁赫曼,7.9,https://movie.douban.com/subject/1304641/,红磨坊
"尼古拉斯·凯奇,钱德勒·坎特布瑞,萝丝·拜恩,D.G. Maloney",亚历克斯·普罗亚斯,6.6,https://movie.douban.com/subject/2354729/,神秘代码
"道恩·强森,亚历珊德拉·达达里奥,卡拉·古奇诺,雨果·约翰斯通-伯特,雅奇·潘嘉比",布拉德·佩顿,7.0,https://movie.douban.com/subject/25786077/,末日崩塌
"伊桑·霍克,莎拉·斯努克,诺亚·泰勒,弗雷娅·斯塔福,伊莉斯·詹森","迈克尔·斯派瑞,彼得·斯派瑞",7.7,https://movie.douban.com/subject/20278505/,前目的地
"基努·里维斯,桑德拉·布洛克,克里斯托弗·普卢默,艾邦·摩斯-巴克拉赫,维力奇·范·阿麦莱",亚历杭德罗·阿格雷斯蒂,7.7,https://movie.douban.com/subject/1474180/,触不到的恋人
"霍利·亨特,哈威·凯特尔,山姆·尼尔,安娜·帕奎因,克利夫·柯蒂斯",简·坎皮恩,8.0,https://movie.douban.com/subject/1293818/,钢琴课
"凯尔·凯特莱特,海伦娜·伯翰·卡特,朱迪·戴维斯,考乐姆·吉斯·雷尼,妮娅姆·威尔逊",让-皮埃尔·热内,8.5,https://movie.douban.com/subject/6985803/,少年斯派维的奇异旅行
"尼古拉斯·凯奇,伊娃·门德斯,彼得·方达,山姆·艾里奥特,韦斯·本特利",马克·斯蒂文·约翰逊,6.3,https://movie.douban.com/subject/1482077/,灵魂战车
"伊利亚·伍德,布莱特妮·墨菲,休·杰克曼,妮可·基德曼,罗宾·威廉姆斯","乔治·米勒,沃伦·科尔曼,朱迪·莫里斯",7.3,https://movie.douban.com/subject/1760027/,快乐的大脚
"萨莎·拜伦·科恩,马克·斯特朗,艾拉·菲舍尔,蕾蓓尔·威尔森,加布蕾·丝迪贝",路易斯·莱特里尔,7.2,https://movie.douban.com/subject/25830732/,王牌贱谍：格林斯比
"凯瑟琳·泽塔-琼斯,艾伦·艾克哈特,阿比盖尔·布蕾斯琳,派翠西娅·克拉克森,珍妮·瓦德",斯科特·希克斯,6.9,https://movie.douban.com/subject/1947144/,美味情缘
"约翰·特拉沃尔塔,休·杰克曼,哈莉·贝瑞,唐·钱德尔,维尼·琼斯",多米尼克·塞纳,7.4,https://movie.douban.com/subject/1304608/,剑鱼行动
"丹泽尔·华盛顿,伊桑·霍克,斯科特·格伦,汤姆·贝伦杰,哈里斯·于林",安东尼·福奎阿,7.9,https://movie.douban.com/subject/1304898/,训练日
"妮可·基德曼,休·杰克曼,布兰登·沃特斯,大卫·文翰,大卫·古皮利",巴兹·鲁赫曼,7.2,https://movie.douban.com/subject/2010975/,澳洲乱世情
"约翰尼·德普,伊娃·格林,米歇尔·菲佛,海伦娜·伯翰·卡特,科洛·莫瑞兹",蒂姆·波顿,6.3,https://movie.douban.com/subject/2227293/,黑暗阴影
"马修·布罗德里克,莫伊拉·凯利,内芙·坎贝尔","达雷尔·鲁尼,罗布·拉杜卡",7.7,https://movie.douban.com/subject/1301757/,狮子王2：辛巴的荣耀
"西恩·潘,蒂姆·罗宾斯,凯文·贝肯,劳伦斯·菲什伯恩,马西娅·盖伊·哈登",克林特·伊斯特伍德,7.8,https://movie.douban.com/subject/1307748/,神秘河
"凯特·温丝莱特,朱迪·戴维斯,利亚姆·海姆斯沃斯,雨果·维文,卡罗琳·古多尔",乔瑟琳·穆尔豪斯,7.9,https://movie.douban.com/subject/25697098/,裁缝
"卢夫斯·塞维尔,威廉·赫特,基弗·萨瑟兰,詹妮弗·康纳利",亚历克斯·普罗亚斯,7.8,https://movie.douban.com/subject/1292332/,移魂都市
"戈兹·奥托,茱莉亚·迭泽,克里斯托弗·卡比,斯黛芬妮·保罗,蒂洛·普吕克讷",提莫·沃伦索拉,6.6,https://movie.douban.com/subject/3103186/,钢铁苍穹
"克里斯·普拉特,威尔·法瑞尔,伊丽莎白·班克斯,威尔·阿奈特,连姆·尼森","菲尔·罗德,克里斯托弗·米勒",7.9,https://movie.douban.com/subject/3927734/,乐高大电影
"艾比·考尼什,本·卫肖,托马斯·布罗迪-桑斯特,保罗·施耐德,凯瑞·福克斯",简·坎皮恩,7.7,https://movie.douban.com/subject/2072848/,明亮的星
"戴夫·帕特尔,鲁妮·玛拉,大卫·文翰,妮可·基德曼,桑尼·帕沃",加斯·戴维斯,7.5,https://movie.douban.com/subject/26220650/,雄狮
"杰瑞米·桑普特,蕾切儿·哈伍德,詹森·艾萨克,理查德·布赖尔斯,琳恩·雷德格瑞夫",P·J·霍根,8.1,https://movie.douban.com/subject/1307931/,小飞侠彼得潘
"亚历克斯·伊特尔,艾米丽·沃森,本·卓别林,布莱恩·考克斯",杰·拉塞尔,6.7,https://movie.douban.com/subject/1866424/,尼斯湖怪：深水传说
"尼克·拉塞尔,凯斯蒂·莫拉西 ",帕特里克·休斯,8.6,https://movie.douban.com/subject/3566709/,信号
"艾玛·罗伯茨,乔安娜•利维斯克,萨拉·帕克斯顿,杰克·麦克道曼,阿莉尔·凯贝尔",伊丽莎白·艾伦 ,6.5,https://movie.douban.com/subject/1580620/,美人鱼
"吉姆·斯特吉斯,雨果·维文,艾米莉·德瑞文,瑞恩·柯万腾,海伦·米伦",扎克·施奈德,7.3,https://movie.douban.com/subject/3041281/,猫头鹰王国：守卫者传奇
"尼古拉·科斯特-瓦尔道,布伦顿·思韦茨,杰拉德·巴特勒,查德维克·博斯曼,艾洛蒂·袁",亚历克斯·普罗亚斯,6.5,https://movie.douban.com/subject/26662345/,神战：权力之眼
"杰夫·高布伦,伊丽莎白·帕金斯,米瑞安·玛格莱斯",劳伦斯·哥特曼,6.7,https://movie.douban.com/subject/1305071/,猫狗大战
"瑞斯·维克菲尔德,艾莉森·克拉特切莉,克里斯托弗·贝克,理查德·劳斯伯格,艾恩·格拉法德",阿里斯特·格里尔森,7.4,https://movie.douban.com/subject/3319741/,夺命深渊
"伊桑·霍克,威廉·达福,伊莎贝尔·卢卡斯,山姆·尼尔,Harriet Minto-Day","迈克尔·斯派瑞,彼得·斯派瑞",6.8,https://movie.douban.com/subject/1972732/,嗜血破晓
"加布里埃尔·伯恩,朱丽安娜· 玛格丽丝,朗·埃达德,戴斯蒙德·哈灵顿,艾赛亚·华盛顿",史蒂芬·贝克,6.7,https://movie.douban.com/subject/1296535/,幽灵船
蒂姆·明钦,"安德鲁·鲁赫曼,陈志勇",8.2,https://movie.douban.com/subject/4892642/,失物招领
"桑德拉·布洛克,迈克尔·凯恩,本杰明·布拉特,坎迪斯·伯根,威廉·夏特纳",唐纳德·佩特瑞,6.8,https://movie.douban.com/subject/1301173/,特工佳丽
"查宁·塔图姆,瑞秋·麦克亚当斯,斯科特·斯比德曼,杰西卡·麦克娜美,杰西卡·兰格",迈克尔·苏克西,7.2,https://movie.douban.com/subject/5036969/,誓约
"伊利亚·伍德,罗宾·威廉姆斯,红粉佳人,伊丽莎白·戴利,卡洛斯·阿拉斯拉奇",乔治·米勒,7.2,https://movie.douban.com/subject/3626364/,快乐的大脚2
"杰森·斯坦森,克里夫·欧文,罗伯特·德尼罗,多米尼克·珀塞尔,阿登·杨",加里·麦肯德莱,6.5,https://movie.douban.com/subject/3775167/,铁血精英
"成龙,董骠,楼学贤,吴辰君,卢惠光",唐季礼,7.3,https://movie.douban.com/subject/1296947/,警察故事4：简单任务
"内森·连恩,厄尼·萨贝拉,马修·布罗德里克,杰瑞·斯蒂勒,乌比·戈德堡",布拉德利·雷蒙德,7.8,https://movie.douban.com/subject/1401604/,狮子王3
"乔纳森·莱斯·梅耶斯,拉达·米切尔,周润发,杨紫琼",罗杰·斯波蒂斯伍德,6.7,https://movie.douban.com/subject/1923474/,黄石的孩子
"博亚娜·诺瓦科维奇,约什·劳森,达蒙·海瑞曼,本·劳森,丽萨·麦坤",约什·劳森,7.4,https://movie.douban.com/subject/25947154/,爱的那点性事
"哈莉·贝瑞,本杰明·布拉特,莎朗·斯通,朗贝尔·维尔森,弗兰西丝·康罗伊",皮托夫,5.7,https://movie.douban.com/subject/1308771/,猫女
"艾伦·艾克哈特,伊冯娜·斯特拉霍夫斯基,米兰达·奥图,比尔·奈伊,杰·科特尼",斯图尔特·贝亚蒂耶,5.2,https://movie.douban.com/subject/3680627/,屠魔战士
"沙妮·文森,泽维尔·塞缪尔,朱利安·麦克马洪,菲比·托金,戚玉武",金波·兰道,5.4,https://movie.douban.com/subject/3735015/,大海啸之鲨口逃生
"马克思·瑞考德兹,凯瑟琳·基纳,詹姆斯·甘多菲尼,劳伦·艾波罗丝,保罗·达诺",斯派克·琼斯,7.0,https://movie.douban.com/subject/1948937/,野兽家园
"克里斯·海姆斯沃斯,本杰明·沃克,基里安·墨菲,汤姆·赫兰德,本·卫肖",朗·霍华德,7.2,https://movie.douban.com/subject/3582181/,海洋深处
"艾玛·汤普森,汤姆·汉克斯,保罗·吉亚玛提,詹森·舒瓦兹曼,科林·法瑞尔",约翰·李·汉考克,7.6,https://movie.douban.com/subject/10756518/,大梦想家
"乔纳森·塔克,吉娜·马隆,劳拉·莱姆希,肖恩·阿什莫,乔·安德森",卡特·史密斯,6.4,https://movie.douban.com/subject/2132486/,恐怖废墟
"安吉丽娜·朱莉,伊桑·霍克,基弗·萨瑟兰,吉娜·罗兰兹,奥利维埃·马丁内斯",D·J·卡卢索,7.0,https://movie.douban.com/subject/1309145/,机动杀人
"艾米莉·布朗宁,迈克尔·多曼,米拉·福尔克斯,瑞切尔·布莱克,彼得·卡罗尔",茱莉亚·李,5.6,https://movie.douban.com/subject/5157400/,睡美人
"詹姆斯·柯登,多姆纳尔·格里森,萝丝·拜恩,伊丽莎白·德比茨基,玛格特·罗比",威尔·古勒,7.5,https://movie.douban.com/subject/26649604/,比得兔
"萨姆·赖利,萨曼莎·莫顿,亚历山德拉·玛丽亚·拉娜,乔·安德森,托比·凯贝尔",安东·寇班,7.9,https://movie.douban.com/subject/2078906/,控制
耶海兹拉扎诺夫,阿里·福尔曼,8.7,https://movie.douban.com/subject/3047617/,和巴什尔跳华尔兹
"杰森·贝特曼,丽贝卡·豪尔,乔尔·埃哲顿,大卫·丹曼,蒂姆·格里芬",乔尔·埃哲顿,6.6,https://movie.douban.com/subject/26304268/,致命礼物
"杰克·布莱克,迪兰·明奈特,奥德娅·拉什,艾米·莱安,瑞恩·李",罗伯·莱特曼,6.1,https://movie.douban.com/subject/2364051/,鸡皮疙瘩
"妮可·基德曼,丹尼尔·克雷格,杰瑞米·诺森,杰克逊·邦德,杰弗里·怀特","奥利弗·西斯贝格,詹姆斯·麦克特格",6.5,https://movie.douban.com/subject/1482051/,致命拜访
"张艾嘉,梅拉尼·罗兰,宋琇萱,李美琪,凌波",毕国智,7.2,https://movie.douban.com/subject/1309013/,海南鸡饭
"休·杰克曼,莱维·米勒,加内特·赫德兰,鲁妮·玛拉,阿曼达·塞弗里德",乔·赖特,6.1,https://movie.douban.com/subject/25772639/,小飞侠：幻梦启航
"Andy Rodoreda,Ruth Venn,Yolanda Ramke,Alison Gallagher,Kallan Richards","Ben Howling,Yolanda Ramke",8.6,https://movie.douban.com/subject/23780577/,负重前行
"桑德拉·布洛克,休·格兰特,艾丽西亚·维特,马克·费厄斯坦",Marc Lawrence,6.8,https://movie.douban.com/subject/1298728/,贴身情人
"桑德拉·布洛克,雷吉娜·金,希瑟·伯恩斯",约翰·帕斯昆,6.2,https://movie.douban.com/subject/1309028/,特工佳丽2：武力巾帼
"克里斯·奥唐纳,杰克·麦克布瑞尔,马尔科姆·斯图尔特",Brad Peyton,6.4,https://movie.douban.com/subject/3213270/,猫狗大战：珍珠猫复仇
"克里斯汀·凯文诺,米瑞安·玛格莱斯,詹姆斯·克伦威尔,雨果·维文,米丽亚姆·福林",克里斯·努安,8.0,https://movie.douban.com/subject/1292765/,小猪宝贝
"乔什·卢卡斯,瑞切尔·泰勒,诺亚·泰勒,凯莎·卡斯特-休伊斯,卢克·福特",科里夫·斯丹德斯,8.3,https://movie.douban.com/subject/3431802/,红犬历险记
"杰弗里·拉什,Justin Braine,Sonia Todd,克里斯·海伍德,亚历克斯·拉法洛维茨",斯科特·希克斯,8.5,https://movie.douban.com/subject/1297007/,闪亮的风采
"朱迪·福斯特,泰伦斯·霍华德,尼基·凯特,纳威恩·安德利维斯,玛丽·斯汀伯根",尼尔·乔丹,7.3,https://movie.douban.com/subject/1578646/,勇敢的人
"梅尔·吉布森,休·基斯-拜恩,雷格·埃文斯,Steve Bisley,Bertrand Cadart",乔治·米勒,6.1,https://movie.douban.com/subject/1295670/,疯狂的麦克斯
"托马斯·简,萨弗蓉·布罗斯,塞缪尔·杰克逊,杰奎琳·麦根斯,迈克尔·拉帕波特",雷尼·哈林,7.1,https://movie.douban.com/subject/1292680/,深海狂鲨
"梅尔·吉布森,布鲁斯·斯宾斯,弗农·威尔斯,维吉尼亚·海伊,威廉·扎帕",乔治·米勒,7.2,https://movie.douban.com/subject/1292453/,疯狂的麦克斯2
"詹妮弗·安妮斯顿,凯文·科斯特纳,雪莉·麦克雷恩,马克·鲁弗洛,理查德·詹金斯",罗伯·莱纳,6.4,https://movie.douban.com/subject/1422911/,流言蜚语
"陈冲,戚玉武",托尼·艾尔斯,7.9,https://movie.douban.com/subject/1876765/,意
"埃米尔·赫斯基,克里斯蒂娜·里奇,苏珊·萨兰登,约翰·古德曼,马修·福克斯","莉莉·沃卓斯基,拉娜·沃卓斯基",6.1,https://movie.douban.com/subject/1939761/,极速赛车手
"约翰尼·德普,萨曼莎·莫顿,约翰·马尔科维奇,裴淳华,理查德·柯伊尔",Laurence Dunmore,7.5,https://movie.douban.com/subject/1394490/,浪荡子
"阿丽雅,斯图尔特·汤森德,玛格丽特·莫罗,文森特·佩雷斯",迈克尔·瑞迈尔,6.1,https://movie.douban.com/subject/1306601/,吸血鬼女王
"哈里森·福特,保罗·贝坦尼,维吉妮娅·马德森,卡莉·许洛德,吉米·本内特",理查德·隆克瑞恩,6.0,https://movie.douban.com/subject/1474762/,防火墙
尼克·武伊契奇,尼克·武伊契奇,9.3,https://movie.douban.com/subject/3711725/,我和世界不一样
"Jahla Bryant,Ryan Fitzpatrick,Andrew Cracker,Kayden Lawson,Max Lawson",Michelle Lehman,8.1,https://movie.douban.com/subject/3430694/,娶我
"John Assaraf,Skye Byrne,Mike Dooley,Bob Doyle","Drew Heriot,Sean Byrne",8.0,https://movie.douban.com/subject/2016418/,自然法则：吸引定律
"安东尼·霍普金斯,安东·叶利钦,霍普·戴维斯,大卫·摩斯,艾伦·图代克",斯科特·希克斯,8.1,https://movie.douban.com/subject/1306512/,亚特兰蒂斯之心
"拉达·米切尔,迈克尔·瓦尔坦,萨姆·沃辛顿,Celia Ireland,约翰·贾瑞特",Greg Mclean,5.7,https://movie.douban.com/subject/2159244/,逃亡鳄鱼岛
"克里夫·欧文,劳拉·弗雷泽,乔治·麦凯,艾瑞克·托马森,娜塔莎·里特",斯科特·希克斯,8.0,https://movie.douban.com/subject/2170916/,男孩们回来了
"Scented soap,Toothpaste  Toothbrush,Comb       and so on",,8.3,https://movie.douban.com/subject/2215476/,牙刷家族
"埃茜·戴维斯,诺亚·怀斯曼,丹尼尔·亨绍尔,Tim Purcell,Tiffany Lyndall-Knight",詹妮弗·肯特,6.3,https://movie.douban.com/subject/25785812/,鬼书
"李冰冰,凯南·鲁兹,吴尊,凯尔希·格兰莫,斯黛芬·道森",金波·兰道,3.9,https://movie.douban.com/subject/26612285/,谜巢
"Kylie Clare,Tony Blackett,Allen Leong,Matthew Nicholls,Nik Forster",克里斯·罗哈,8.4,https://movie.douban.com/subject/1303164/,第十三层
"杰弗里·拉什,约翰·弗劳思,朱莉·福塞斯,卡玛尔",亚当·艾略特,8.2,https://movie.douban.com/subject/1432640/,裸体哈维闯人生
"热拉尔·德帕迪约,安迪·麦克道威尔,毕比·诺维尔什",彼得·威尔,7.6,https://movie.douban.com/subject/1293651/,绿卡
"威尔·史密斯,亚历克·鲍德温,古古·姆巴塔-劳,艾利斯·霍华德,卢克·威尔逊",彼得·兰德斯曼,7.0,https://movie.douban.com/subject/25900248/,震荡效应
碧安卡·布雷迪,Kiah Roache-Turner,6.4,https://movie.douban.com/subject/24746974/,僵尸来袭
"本·斯蒂勒,欧文·威尔逊,克里斯蒂娜·泰勒,威尔·法瑞尔,米拉·乔沃维奇",本·斯蒂勒,5.7,https://movie.douban.com/subject/1308675/,超级名模
"艾拉娜·德·罗玛,瑞切尔·格里菲斯,本·门德尔森,凯瑞·阿姆斯特朗,威廉·扎帕",纳迪娅·塔斯,8.6,https://movie.douban.com/subject/1295025/,艾美的世界
"罗伯特·德尼罗,比利·克里斯托,丽莎·库卓,查兹·帕尔明特瑞",哈罗德·雷米斯,7.3,https://movie.douban.com/subject/1297012/,老大靠边闪
"罗宾·威廉姆斯,曼迪·摩尔,约翰·卡拉辛斯基,艾瑞克·克里斯蒂安·奥森,克里斯蒂娜·泰勒",肯·卡皮斯,6.6,https://movie.douban.com/subject/2045321/,结婚证书
"雨果·维文,盖·皮尔斯,特伦斯·斯坦普",斯蒂芬·埃利奥特,8.3,https://movie.douban.com/subject/1292345/,沙漠妖姬
"希斯·莱杰,杰弗里·拉什,艾比·考尼什",尼尔·阿姆菲尔德,7.6,https://movie.douban.com/subject/1499796/,糖果
"梅尔·吉布森,蒂娜·特纳,亚当·科克伯恩,布鲁斯·斯宾斯,弗兰克·思林","乔治·米勒,乔治·奥格尔维",6.4,https://movie.douban.com/subject/1294383/,疯狂的麦克斯3
"梅根·沃纳,伊恩·麦杜思,奥利维亚·德容格,乔什·邝·塔特,帕特里克·哈维","卡梅伦·凯恩斯,科林·凯恩斯",6.9,https://movie.douban.com/subject/26649095/,恐吓运动
"乔治·克鲁尼,马克·沃尔伯格,艾斯·库珀,斯派克·琼斯,克利夫·柯蒂斯",大卫·O·拉塞尔,7.0,https://movie.douban.com/subject/1294202/,夺金三王
"金·凯瑞,鲍勃·巴拉班,杰弗里·德曼,哈尔·霍尔布鲁克,劳瑞·侯登",弗兰克·德拉邦特,7.9,https://movie.douban.com/subject/1306605/,电影人生
"罗宾·怀特,娜奥米·沃茨,泽维尔·塞缪尔,詹姆斯·弗兰切威勒,本·门德尔森",安妮·芳婷,6.7,https://movie.douban.com/subject/10442182/,忘年恋曲
,Jim Kammerud,7.0,https://movie.douban.com/subject/1401600/,小美人鱼2：重返大海
泰莉莎·帕尔墨,Murali K. Thalluri,7.6,https://movie.douban.com/subject/1859053/,2:37
"山姆·尼尔,陈小春,王姬,罗伯特·马莫内,李林金",马里奥·安德鲁西奥,3.7,https://movie.douban.com/subject/5355365/,寻龙夺宝
"小弗雷迪·普林兹,莎拉·米歇尔·盖拉,马修·里沃德,琳达·卡德里尼,罗温·艾金森",拉加·高斯内尔,6.0,https://movie.douban.com/subject/1304554/,史酷比
"凯特·布兰切特,罗伯特·雷德福,伊丽莎白·莫斯,托弗·戈瑞斯,丹尼斯·奎德",詹姆斯·范德比尔特,7.5,https://movie.douban.com/subject/25925430/,真相
"约翰·贾瑞特,卡桑德拉·玛格拉斯,凯斯蒂·莫拉西 ,内森·菲利普斯,Andy McPhee",克瑞格·麦克林恩,5.8,https://movie.douban.com/subject/1424661/,狼溪
"本杰明·布拉特,约瑟夫·费因斯,詹姆斯·弗兰科",John Dahl,7.1,https://movie.douban.com/subject/1436891/,大偷袭
"威文·格雷,海伦·摩斯,杰基·韦佛,安·路易斯·兰伯特",彼得·威尔,7.4,https://movie.douban.com/subject/1299539/,悬崖上的野餐
"摩根·弗里曼,托马斯·简,杰森·李,戴米恩·路易斯,蒂莫西·奥利芬特",劳伦斯·卡斯丹,6.3,https://movie.douban.com/subject/1305463/,捕梦网
,Christopher Kezelos,8.3,https://movie.douban.com/subject/19976906/,创造者
"奥利维亚·德容格,维吉妮娅·马德森,帕特里克·沃伯顿,戴克·蒙哥马利,莱维·米勒",克里斯·佩寇维,6.4,https://movie.douban.com/subject/26731238/,安全邻域
"布伦丹·考威尔,哈里森·吉尔伯特森,史蒂芬·李·马奎德,杜坎·杨,盖东·格兰特利",杰瑞米·西姆斯,7.4,https://movie.douban.com/subject/3681128/,奇袭60阵地
"乔什·布洛林,伊丽莎白·班克斯,坦迪·牛顿,艾伦·伯斯汀,理查德·德莱弗斯",奥利佛·斯通,6.6,https://movie.douban.com/subject/3010415/,小布什传
"瑞斯·维克菲尔德,托妮·科莱特,卢克·福特,艾瑞克·托马森,嘉玛·沃德",艾丽莎·唐恩,7.6,https://movie.douban.com/subject/2134296/,黑气球
,米歇尔·格拉沃格,7.5,https://movie.douban.com/subject/3291928/,妓女的荣耀
"丹尼尔·克劳德·坎波斯,斯邦瑟·舒瑟","丹尼尔·克劳德·坎波斯,斯邦瑟·舒瑟",8.4,https://movie.douban.com/subject/26733468/,闪亮
"大卫·阿奎特,卡瑞·伍尔,汤姆·诺南,斯嘉丽·约翰逊,瑞克·欧弗顿",埃洛瑞·埃卡伊姆,5.9,https://movie.douban.com/subject/1298602/,八脚怪
"杰基·韦佛,丹·威利,本·门德尔森,乔尔·埃哲顿,盖·皮尔斯",大卫·米奇欧德,6.8,https://movie.douban.com/subject/3601176/,动物王国
"约翰·贾瑞特,瑞安·柯尔,香努·艾诗琳,菲利普·克劳斯,尚恩·康纳",克瑞格·麦克林恩,6.4,https://movie.douban.com/subject/10745412/,狼溪2
"雨果·维文,汤姆·拉塞尔,Anita Hegh,约翰·布鲁普顿,索尼娅·苏瑞思",Glendyn Ivin,7.8,https://movie.douban.com/subject/3399850/,最后的旅程
"方·基默,凯瑞-安·莫斯,本杰明·布拉特,汤姆·塞兹摩尔,西蒙·贝克",Antony Hoffman,6.6,https://movie.douban.com/subject/1304496/,红色星球
"杰弗里·拉什,安东尼·拉帕格利亚,Samuel Johnson,巴里·奥托,乔尔·埃哲顿",塔蒂亚·罗森娜尔,7.8,https://movie.douban.com/subject/3278841/,9.99澳元
"莎斯琪亚·罗森道尔,内勒·特雷布斯,安德烈· 弗雷德,米卡·赛德尔,凯-皮特·马立纳",凯特·休特兰,7.5,https://movie.douban.com/subject/6970906/,少女洛荷
"戴安·琳恩,理查·基尔,维奥拉·戴维斯,克里斯托弗·米洛尼,斯科特·格伦",乔治·乌尔夫,6.8,https://movie.douban.com/subject/2132468/,罗丹岛之恋
"Tsewang Dandup,Sonam Lhamo,Lhakpa Dorji",宗萨钦哲仁波切,8.2,https://movie.douban.com/subject/1308577/,旅行者与魔法师
,Christopher Kezelos,7.7,https://movie.douban.com/subject/5380913/,零
"泰莉莎·帕尔墨,米契尔·哈思曼,萨姆·里德,梅芙·德莫迪,约翰·沃特斯",保罗·柯瑞,5.9,https://movie.douban.com/subject/2338070/,绝命时钟2:22
"玛格达·苏班斯基,詹姆斯·克伦威尔,米基·鲁尼,伊丽莎白·戴利",乔治·米勒,7.9,https://movie.douban.com/subject/1293648/,小猪宝贝2：小猪进城
"Brett Hicks-Maitland,Ren Klyce",Peter Cornwell,7.9,https://movie.douban.com/subject/1777013/,13号病房
"米娅·华希科沃斯卡,亚当·德赖弗,艾玛·布斯,杰西卡·托维,梅拉妮·萨内蒂",约翰·卡兰,7.4,https://movie.douban.com/subject/19975328/,沙漠驼影
"罗素·克劳,欧嘉·柯瑞兰寇,伊尔玛兹·艾多甘,杰姆·耶尔马兹,杰·科特尼",罗素·克劳,6.8,https://movie.douban.com/subject/25749871/,占水师
"埃迪·雷德梅恩,汤姆·斯图里奇,托妮·科莱特",Gregory J. Read,7.3,https://movie.douban.com/subject/1858064/,心智相投
"桑德拉·布洛克,妮可·基德曼,黛安·韦斯特,斯托卡特·詹宁,高兰·维斯耶克",格里芬·邓恩,6.3,https://movie.douban.com/subject/1294995/,超异能快感
"Jessica McNamee,Richard Wilson,Xavier Samuel,Robin McLeavy",肖恩·伯恩,6.4,https://movie.douban.com/subject/3288399/,夺命之爱
"瑞安·柯尔,克雷格·斯托特,盖·皮尔斯,杰弗里·拉什,安东尼·拉帕格利亚",尼尔·阿姆菲尔德,7.5,https://movie.douban.com/subject/26013293/,抱紧他
"沙利文·斯特普尔顿,泰莉莎·帕尔墨,西蒙·佩吉,卡兰·马尔韦,卢克·海姆斯沃斯",科里夫·斯丹德斯,6.3,https://movie.douban.com/subject/10764850/,杀了我三次
"科林·费尔斯,妮可·基德曼,杰瑞米·艾文,真田广之,斯特兰·斯卡斯加德",乔纳森·泰普兹,6.4,https://movie.douban.com/subject/7062367/,铁路劳工
"杰瑞·奥康奈尔,安东尼·安德森,克里斯托弗·沃肯,艾斯黛拉·沃伦",David McNally,6.2,https://movie.douban.com/subject/1306295/,抢钱袋鼠
"凯蒂·霍尔姆斯,盖·皮尔斯,拜莉·麦迪逊,阿兰·戴尔,朱丽娅·布莱克",Troy Nixey,5.5,https://movie.douban.com/subject/3168094/,黑夜勿怕
尼古拉斯·霍普,洛夫·德·希尔,8.1,https://movie.douban.com/subject/1296847/,坏小子巴比
"克林特·伊斯特伍德,汤米·李·琼斯,唐纳德·萨瑟兰,詹姆斯·加纳,詹姆斯·克伦威尔",克林特·伊斯特伍德,7.4,https://movie.douban.com/subject/1301444/,太空牛仔
"罗志祥,杨丞琳",陈正道,6.4,https://movie.douban.com/subject/11584143/,再一次心跳
"夏洛特·甘斯布,马尔顿·索克斯,阿登·杨,克里斯蒂安·拜尔斯,Penne Hackforth-Jones",朱莉·波图赛利,7.3,https://movie.douban.com/subject/3990145/,树
"丹尼尔·雷德克里夫,李·柯尔梅,克里斯蒂安·拜尔斯,詹姆斯·弗雷泽,泰莉莎·帕尔墨",罗德·哈迪,6.6,https://movie.douban.com/subject/1889127/,十二月男孩
"约翰·马尔科维奇,杰西卡·海恩斯,艾瑞克·艾伯纳尼,娜塔莉·贝克尔",史蒂夫·雅各布,7.4,https://movie.douban.com/subject/2132491/,耻
"雨果·维文,大卫·文翰,艾米丽·沃森,塔拉·莫里斯",吉姆·洛奇,7.6,https://movie.douban.com/subject/3735147/,橙子与阳光
"罗伯特·德尼罗,比利·克里斯托",哈罗德·雷米斯,6.7,https://movie.douban.com/subject/1296927/,老大靠边闪2
,Sejong Park,7.1,https://movie.douban.com/subject/1901386/,祝生日
"Orgyen Tobgyal,Neten Chokling,Jamyang Lodro",宗萨钦哲仁波切,8.5,https://movie.douban.com/subject/1305539/,高山上的世界杯
Laura Jane Turner,Tim Egan,7.5,https://movie.douban.com/subject/26823498/,曲面
"丹尼尔·雷德克里夫,亚历克斯·罗素,托马斯·克莱舒曼,莉莉·沙利文,娅丝明·卡西姆",克瑞格·麦克林恩,6.7,https://movie.douban.com/subject/26726261/,丛林
李漫荻,汪洋,4.9,https://movie.douban.com/subject/24883793/,蓝可儿之旅
"比尔吉特·道尔,迪特尔·贝尔讷,乌多·萨梅尔",迈克尔·哈内克,8.1,https://movie.douban.com/subject/1437410/,第七大陆
"保罗·霍根,琳达·科斯罗斯基,约翰·梅永,大卫·古皮利",Peter Faiman,7.2,https://movie.douban.com/subject/1304488/,鳄鱼邓迪
Damon Gameau,Damon Gameau,8.4,https://movie.douban.com/subject/26356457/,一部关于糖的电影
"萝丝·拜恩,黑川力矢,尼古拉斯·霍普,伊丽丝·麦克雷迪,堺雅人",罗卓瑶,8.0,https://movie.douban.com/subject/1298683/,寻找1967的女神
"迈克尔·道格拉斯,肖恩·宾,布莱特妮·墨菲,丝凯·麦柯·巴楚沙,Guy Torry",加里·弗莱德,6.6,https://movie.douban.com/subject/1304897/,沉默生机
"Zoe Tuckwell-Smith,Krew Boylan,Lindsay Farris",Josh Reed,5.2,https://movie.douban.com/subject/5064521/,原始恐惧
"李秉宪,孔晓振,安昭熙,本尼迪克·哈迪,杰克·坎贝尔",李祖英,6.9,https://movie.douban.com/subject/26715549/,单身骑士
"塔布莱特·贝赛尔,弗雷娅·斯塔福,安迪·惠特菲尔德,克莱尔·鲍温,苏菲·洛",James Rabbitts,5.7,https://movie.douban.com/subject/4313237/,诊所惊魂
"Callan McAuliffe,John Batchelor,Diana Glenn,Steve Le Marquand,Pippa Grandison",Hannah Hilliard,8.1,https://movie.douban.com/subject/4305081/,变装酷童
"艾比·考尼什,萨姆·沃辛顿",凯特·休特兰,7.5,https://movie.douban.com/subject/1309202/,生命翻筋斗
Rhonda Pownall,Simon Jago,8.6,https://movie.douban.com/subject/25919367/,蠢蠢的死法
"布伦顿·思韦茨,伊万·麦克格雷格,艾丽西亚·维坎德,马特·纳夫莱,达蒙·海瑞曼",朱利叶斯·艾弗里,5.9,https://movie.douban.com/subject/20515015/,枪之子
"罗伯特·帕丁森,盖·皮尔斯,斯科特·麦克纳里,大卫·菲尔德,理查德·格林",大卫·米奇欧德,6.2,https://movie.douban.com/subject/10578312/,沙海漂流人
"Rachel Griffiths,Bryan Brown,Ben Mendelsohn",Rachel Ward,7.4,https://movie.douban.com/subject/3790533/,美丽的凯特
凯特·布兰切特,朱利安·罗斯菲德,7.4,https://movie.douban.com/subject/26414254/,宣言
"泽维尔·塞缪尔,基兰·达西-史密斯",Peter Carstairs,7.5,https://movie.douban.com/subject/2265743/,九月
"蕾切儿·哈伍德,菲比·托金,凯特琳·斯塔西,林肯·刘易斯",Stuart Beattie,5.1,https://movie.douban.com/subject/3804708/,明日，战争爆发时
凯瑞·福克斯,简·坎皮恩,7.8,https://movie.douban.com/subject/1302606/,天使与我同桌
"雷·沃纳尔,保罗·莫德,卡特丽娜·马瑟斯,迪恩·弗朗西斯",温子仁,7.2,https://movie.douban.com/subject/4881576/,电锯惊魂前传
"查理·罗,卡尔·厄本,安格瑞·赖斯,约翰·雷吉扎莫,贾斯汀·朗","巴里·库克,Neil Nightingale",6.5,https://movie.douban.com/subject/6875763/,与恐龙同行
"乔尔·埃哲顿,赫尔穆特·巴凯蒂斯",Anthony Lucas,8.5,https://movie.douban.com/subject/1756578/,加斯帕·莫雷罗神秘探险记
"Rik Mayall,Jerome Pradon,Glenn Carter","Gale Edwards,Nick Morris",8.4,https://movie.douban.com/subject/1958976/,耶稣基督万世巨星
"威廉·达福,沙利文·斯特普尔顿,山姆·尼尔,弗兰西丝·奥康纳,摩根·戴维斯",丹尼尔·奈西姆,6.8,https://movie.douban.com/subject/5028368/,猎人
"盖·皮尔斯,凯瑟琳·泽塔-琼斯,蒂莫西·斯波,西尔莎·罗南",吉莉安·阿姆斯特朗,6.1,https://movie.douban.com/subject/1867403/,死亡挑战行动
"Felicity Mason,罗伯·詹金斯,Emma Randall,Robyn Moore,Robert Jozinovic","迈克尔·斯派瑞,彼得·斯派瑞",5.1,https://movie.douban.com/subject/1307206/,猎杀活死人
"艾瑞克·巴纳,德鲁·巴里摩尔,罗伯特·杜瓦尔,黛博拉·梅辛,乔伊·科恩",柯蒂斯·汉森,6.4,https://movie.douban.com/subject/1482062/,幸运赌神
,玛雅·纽维尔,8.6,https://movie.douban.com/subject/26381767/,同志宝贝
"迈克尔·凯恩,布兰登·费舍,杜氏海燕,拉德·舍博德兹加,马志",菲利普·诺伊斯,6.9,https://movie.douban.com/subject/1304780/,沉静的美国人
"艾伦·图代克,莎拉·斯努克,德波拉·梅尔曼,特里·金瑞利,肖恩·雅克博森",斯图尔特·麦克唐纳,6.8,https://movie.douban.com/subject/25940531/,企鹅小守护
,Chris Jones,7.1,https://movie.douban.com/subject/3167891/,旅客
"珍妮·艾加特,大卫·古皮利,约翰·梅永,Robert McDarra,Hilary Bamberger",尼古拉斯·罗伊格,7.7,https://movie.douban.com/subject/1295835/,小姐弟荒原历险
"杰西卡·德·古维,托马斯·康奎尔,TJ·鲍尔,利亚姆·格雷厄姆,普丽西拉-安妮·福德",本·C·卢卡斯,6.5,https://movie.douban.com/subject/27043957/,虚拟实惊
"艾德里安·布洛迪,山姆·尼尔,罗宾·麦克丽薇,布鲁斯·斯宾斯,苏西·斯蒂恩",迈克尔·彼得罗尼,6.1,https://movie.douban.com/subject/24712052/,回溯
"杰米·普莱斯利,艾斯·库珀,马丁·亨德森,莫奈特·玛佐,杰伊·埃尔南德斯",乔瑟夫·卡恩,6.4,https://movie.douban.com/subject/1300378/,极速酷客
"Bel Deliá,Andy Rodoreda,Steve Davis,Luke Arnold,Goran D. Kleut",Carlo Ledesma,5.6,https://movie.douban.com/subject/6028313/,隧道
"泰莉莎·帕尔墨,马克思·雷迈特,马蒂亚斯·哈比希,艾玛·巴丁,艾尔迈拉·拜赫尔米",凯特·休特兰,5.9,https://movie.douban.com/subject/26612600/,柏林综合症
"雷·温斯顿,特穆拉·莫里森",伊恩·夏普,7.5,https://movie.douban.com/subject/3660570/,狂野追踪
"凯特·温丝莱特,哈威·凯特尔,苏菲·李",简·坎皮恩,6.4,https://movie.douban.com/subject/1301719/,圣烟
"Thomas Blackburne,Martin Sharpe",Kristian Pithie,7.2,https://movie.douban.com/subject/2988772/,橙子
"拉尔夫·费因斯,凯特·布兰切特,塞伦·希德,汤姆·威尔金森,理查德·劳斯伯格",吉莉安·阿姆斯特朗,7.3,https://movie.douban.com/subject/1296570/,奥斯卡与露辛达
"莱纳斯·罗彻,Rahul Bose,兰迪塔·达斯,詹妮弗·艾莉",Santosh Sivan,6.3,https://movie.douban.com/subject/3035549/,雨季将至
"希斯·莱杰,奥兰多·布鲁姆,杰弗里·拉什,娜奥米·沃茨,乔尔·埃哲顿",格雷格·乔丹,6.5,https://movie.douban.com/subject/1307309/,凯利党
本·刘易斯,"Brett Sullivan,Simon Lee Phillips",6.3,https://movie.douban.com/subject/10600877/,歌剧魅影2：真爱不死
约翰·赫特,保罗·考克斯,8.0,https://movie.douban.com/subject/1469497/,凡高的生与死
"雷切尔·沃德,麦克尔·约克,卡琳娜·隆巴德",约翰·杜根,7.3,https://movie.douban.com/subject/1304595/,异乡情愁
"凯特·布兰切特,山姆·尼尔,雨果·维文,马丁·亨德森,诺妮·哈泽赫斯",Rowan Woods,6.9,https://movie.douban.com/subject/1309208/,小鱼
"泽维尔·塞缪尔,奥莉维亚·纽顿-约翰,克里斯·马歇尔,凯文·毕晓普,劳拉·布伦特",斯蒂芬·埃利奥特,6.0,https://movie.douban.com/subject/5153025/,好男人不多
Kim Ho,Laura Scrivano,7.5,https://movie.douban.com/subject/24220963/,爱的语言
Ben Oxenbould,"David Nerlich,Andrew Traucki",5.5,https://movie.douban.com/subject/2287735/,黑水
"妮可·基德曼,雨果·维文,约瑟夫·费因斯,肖恩·基南,马丁·沃尔",金·法伦特,5.2,https://movie.douban.com/subject/25750671/,陌生之地
"phurba tashi,Karma Doma Sherpa,Russell Brice",Jennifer Peedom,8.0,https://movie.douban.com/subject/26383939/,高山上的夏尔巴人
"丹尼尔·麦克弗森,黄芝琪,卢克·海姆斯沃斯,卢克·福特,布伦·福斯特",Shane Abbess,5.6,https://movie.douban.com/subject/25983951/,无限
"卡洛斯·欧德利,爱万,克里斯·楼顿,大卫·肯尼斯·沃恩,张君为",罗伯特·道格拉斯,5.7,https://movie.douban.com/subject/22964323/,这是三里屯
"罗伯特·帕丁森,戴恩·德哈恩,乔尔·埃哲顿,本·金斯利,克里斯汀·哈格",安东·寇班,5.9,https://movie.douban.com/subject/25720154/,生活
"理查德·查伯兰,大卫·古皮利,威文·格雷",彼得·威尔,6.9,https://movie.douban.com/subject/1304855/,最后大浪
"瑞克·斯克路德,杰克·汤普森,威廉·霍尔登",彼特·克林逊 Peter Collinson,8.6,https://movie.douban.com/subject/1297440/,荒野有情天
"索尔维格·多马尔坦,威廉·赫特,奇克·奥尔特加,埃迪·米切尔,阿德尔·卢茨",维姆·文德斯,8.1,https://movie.douban.com/subject/1295897/,直到世界尽头
约翰·皮尔格,约翰·皮尔格,8.2,https://movie.douban.com/subject/2996158/,是谁在与民主为敌
"雷·沃纳尔,梅拉里·沃列何",Jody Dwyer,4.8,https://movie.douban.com/subject/2274323/,死亡繁殖
"Everlyn Sampi,Tianna Sansbury,大卫·古皮利,肯尼思·布拉纳,德波拉·梅尔曼",菲利普·诺伊斯,7.9,https://movie.douban.com/subject/1305399/,漫漫回家路
"Xavier Samuel,Sophie Lowe",Dean Francis,4.9,https://movie.douban.com/subject/3097028/,公路列车
"马修·古迪,瑞切尔·格里菲斯,埃茜·戴维斯,凯瑞·福克斯,凯特·宾汉",乔纳森·泰普兹,6.5,https://movie.douban.com/subject/4842404/,火人
"凯特·布兰切特,比利·克鲁德普",吉莉安·阿姆斯特朗,7.3,https://movie.douban.com/subject/1307366/,乱世有情天
"昆汀·塔伦蒂诺,丹尼斯·霍珀,杰米·李·柯蒂斯,乔治·米勒,艾伦·阿金",Mark Hartley,8.1,https://movie.douban.com/subject/3118684/,不十分好莱坞
"雷·温斯顿,盖·皮尔斯,艾米丽·沃森,丹尼·赫斯顿,理查德·威尔逊",约翰·希尔寇特,7.0,https://movie.douban.com/subject/1485411/,关键协议
"萨曼莎·罗博,Michael Piccirilli,杰克·坎贝尔",Shane Abbess,5.6,https://movie.douban.com/subject/2212190/,涤罪天使
"保罗·霍根,肖恩·雅克博森,摩根·格莉芬",迪恩·墨菲,7.6,https://movie.douban.com/subject/3218841/,查理和布茨
"松冈昌宏,北村一辉,唐·弗莱",北村龙平,6.1,https://movie.douban.com/subject/1422931/,哥斯拉之终极战役
比尔·亨特,巴兹·鲁赫曼,7.5,https://movie.douban.com/subject/1306252/,舞国英雄
"王羽,乔治·拉扎贝,休·基斯-拜恩,瑞贝卡·吉尔灵,弗兰克·思林","布赖恩·特伦查德·史密斯,王羽",6.1,https://movie.douban.com/subject/1304804/,直捣黄龙
"Christopher Showerman,Julie Benz,Angus T. Jones,Thomas Haden Church",David Grossman,6.5,https://movie.douban.com/subject/1308670/,森林泰山2
"妮可·基德曼,山姆·尼尔,比利·赞恩",菲利普·诺伊斯,6.4,https://movie.douban.com/subject/1295065/,航越地平线
"本·斯蒂勒,杰克·布莱克,蕾切尔·薇兹,艾米·波勒,克里斯托弗·沃肯",巴瑞·莱文森,5.9,https://movie.douban.com/subject/1304170/,终极贱靶
"Nick Nolte,Adrian Paul,Kate Nauta,Meredith Ostrom,Amanda Douge",Anthony Waller,5.4,https://movie.douban.com/subject/3195900/,地下九英里
"雨果·维文,罗素·克劳,杰弗里·沃克",乔瑟琳·穆尔豪斯,8.3,https://movie.douban.com/subject/1294793/,情如物证
"翟·寇特瑞,肯德拉·阿普尔顿,托德·拉桑斯,布伦·福斯特,史蒂芬·李·马奎德",马克·费米,5.0,https://movie.douban.com/subject/26689730/,终点站
"罗伯特·德尼罗,艾迪·墨菲,瑞秋·哈里斯",汤姆·戴伊,5.9,https://movie.douban.com/subject/1306810/,作秀时刻
"盖·皮尔斯,朱琳,金燕玲,林肯·刘易斯,克劳迪娅·卡万",陈宝玲 ,5.8,https://movie.douban.com/subject/5319823/,幸福卡片
"Oliver Ackland,Alex Russell,Adelaide Clemens",Ben C. Lucas,6.3,https://movie.douban.com/subject/5152602/,荒废青春
"伊万·麦克格雷格,艾什莉·贾德,帕特里克·博金",斯蒂芬·埃利奥特,7.3,https://movie.douban.com/subject/1293887/,燃情追踪
Dylan Moran,Randall Churchill,9.2,https://movie.douban.com/subject/4850732/,迪伦·莫兰脱口秀
"Maeve Dermody,Ryan Kwanten,Toby Schmitz,David Webb,Patrick Brammall",Leon Ford,6.3,https://movie.douban.com/subject/4036357/,隐形的格里夫
"吉姆·卡维泽,克劳迪娅·卡万",Jamie Blanks,5.9,https://movie.douban.com/subject/3011086/,漫长假期
"格伦·克洛斯,弗兰西斯·麦克多蒙德,凯特·布兰切特,保利娜·科林斯",布鲁斯·贝尔斯福德,7.9,https://movie.douban.com/subject/1294619/,天堂之路
"Romy Bartz,唐·海尼 Don Hany",Sandy Widyanata,6.8,https://movie.douban.com/subject/25888268/,塑胶人
"格雷姆·斯夸尔斯,尼古拉斯·冈恩,斯特凡·泰勒,玛丽-泰蕾兹·拜恩,克劳迪娅·格林斯通",罗伯特·丘特,5.4,https://movie.douban.com/subject/25860876/,梦寐之子
布鲁斯·斯宾斯,沃纳·赫尔佐格,8.0,https://movie.douban.com/subject/1394775/,绿蚂蚁做梦的地方
"埃里克·罗伯茨,格列塔·斯卡奇",杜尚·马卡维耶夫,5.8,https://movie.douban.com/subject/1845283/,可口可乐小子
"Nadia Farès,John Brumpton,Robert Taylor",Jamie Blanks,6.2,https://movie.douban.com/subject/2075355/,风暴来临
尼克·凯夫,"Ari Gibson,Eddie White",7.5,https://movie.douban.com/subject/4049600/,猫咪钢琴
"斯考特·沃夫,艾莉莎·米兰诺,查兹·帕尔明特瑞,杰夫·贝内特,裘蒂·班森","达雷尔·鲁尼,珍妮·鲁塞尔",7.2,https://movie.douban.com/subject/1306613/,小姐与流浪汉2：狗儿逃家记
"迈克·康纳·盖尼,保罗·索特,克萝丽丝·利奇曼,尤尔根·普洛斯诺,Cameron Scher",Jay Chandrasekha,6.1,https://movie.douban.com/subject/1782648/,啤酒节
"史蒂芬·莫耶,泰莉莎·帕尔墨,崔维斯·费米尔",David Denneen,6.3,https://movie.douban.com/subject/3070840/,掠木行动
"Jeremy Levi,Alex Wilkie,Dave Woliesen","Roderick Mackay,Dave Stephens",7.3,https://movie.douban.com/subject/10540059/,扳机
,费利克斯·科尔格雷夫,8.2,https://movie.douban.com/subject/27017348/,双王
"托妮·科莱特,瑞切尔·格里菲斯,比尔·亨特",P·J·霍根,7.2,https://movie.douban.com/subject/1293313/,穆丽尔的婚礼
"Talia Zucker,Rosie Traynor",Joel Anderson,6.2,https://movie.douban.com/subject/3293174/,蒙哥湖
素贴·宝恩加姆,基姆·默多恩特,7.4,https://movie.douban.com/subject/20452219/,火箭
"保罗·霍根,琳达·科斯罗斯基,约翰·梅永",John Cornell,6.6,https://movie.douban.com/subject/1298826/,鳄鱼邓迪2
"Hannah Cagwin,Aeona Cruz,Liv Bagley,Shylee Sagle,Danika Toolson",基蒂·格林,7.1,https://movie.douban.com/subject/26773624/,童心无归处
Stephen McDonell,Stephen McDonell,5.7,https://movie.douban.com/subject/5177165/,拜金王朝：中国新生代百万富翁们的狂野生活
"约翰尼·诺克斯维尔,西恩·威廉·斯科特,杰西卡·辛普森",杰伊·钱德拉萨卡,6.3,https://movie.douban.com/subject/1419940/,正义前锋
"Kasia Werstak,Daniel Askill,Jordan Askill",Daniel Askill,6.8,https://movie.douban.com/subject/4202350/,我们决定不要去死
"列维·施瑞博尔,托妮·科莱特,安东尼·拉帕格利亚,卡罗琳·古多尔,凯瑞·福克斯",P·J·霍根,6.0,https://movie.douban.com/subject/6875400/,疯狂保姆
"萨姆·沃辛顿,大卫·文翰",Jonathan Teplitzky,6.7,https://movie.douban.com/subject/1768524/,拿错金盆洗错手
"哈丽特·欧文,布赖恩·韦弗,科里·伯顿,杰夫·贝内特,凯斯·索西","罗宾·巴德,多诺文·库克",7.7,https://movie.douban.com/subject/1306441/,小飞侠2：梦不落帝国
"希斯·莱杰,萝丝·拜恩",Gregor Jordan,7.2,https://movie.douban.com/subject/1306256/,双手
"Daniel Henshal,Lucas Pittaway,Craig Coyne",贾斯汀·库泽尔 ,5.8,https://movie.douban.com/subject/6084406/,雪镇狂魔
"吉娜·戴维斯,乔尔·托贝克,艾瑞克·托马森",Andrew Lancaster,6.3,https://movie.douban.com/subject/3111695/,不测风云
"海利·乔·奥斯蒙,约翰·古德曼",Steve Trenbirth,6.8,https://movie.douban.com/subject/1307326/,森林王子2
Andrew McAuley,"David Michôd,Jennifer Peedom",8.6,https://movie.douban.com/subject/3622646/,孤航
"玛丽·瓦瓦,蒙哥奥·戴恩,查理·卡拉,林盖·科维亚,达瓦·曼果","马丁·巴特勒,宾利·迪恩",6.3,https://movie.douban.com/subject/26577728/,禁忌之恋
阿利克斯·迪米崔德斯,安娜·库金诺斯,6.9,https://movie.douban.com/subject/1297536/,窗外有男天
"Geneviève Lemon,Karen Colston,Tom Lycos,Jon Darling,Dorothy Barry",简·坎皮恩,7.4,https://movie.douban.com/subject/1298736/,甜妹妹
"马特·莱维特,杰克·马修斯,玛雅·施坦格,哈里·库克",迪恩·弗朗西斯,6.3,https://movie.douban.com/subject/11626783/,淹没
,,8.2,https://movie.douban.com/subject/1892807/,2000年第27届悉尼奥运会
"Vince Colosimo,Jacqueline McKenzie,Christian Byers,Sapphire Boyce",Peter Cattaneo,7.9,https://movie.douban.com/subject/1864339/,蛋白石之梦
"西尔维斯特·史泰龙,伯特·雷诺兹,琦普·帕杜,蒂尔·施威格,吉娜·格申",雷尼·哈林,6.4,https://movie.douban.com/subject/1306323/,极速竞赛
Frank Sweet,Grant Scicluna,7.0,https://movie.douban.com/subject/11600264/,不羁禁爱
"安东尼·拉帕格利亚,瑞切尔·布莱克,凯瑞·阿姆斯特朗,马努·贝内特,利亚·珀赛尔",雷·劳伦斯,7.7,https://movie.douban.com/subject/1303123/,爱情无色无味
"克里斯·洛克,查兹·帕尔明特瑞","克里斯·韦兹,保罗·韦兹",6.3,https://movie.douban.com/subject/1306508/,来去天堂
"艾瑞克·巴纳,弗朗卡·波滕特,马尔顿·索克斯,柯蒂·斯密特-麦菲",Richard Roxburgh,7.8,https://movie.douban.com/subject/1858271/,"我的父亲,罗穆卢斯"
"凯南·鲁兹,丹尼尔·麦克弗森,伊莎贝尔·卢卡斯,卢克·福特,瑞切尔·格里菲斯",谢恩·安贝斯,5.3,https://movie.douban.com/subject/26611048/,星际叛将：欧西里斯之子
纳许·艾德顿,纳许·艾德顿,7.4,https://movie.douban.com/subject/3282612/,蜘蛛
"迈克尔·麦斯,Simon Westaway,罗伯特·维斯多姆,朱利安·加纳",Brian Trenchard-Smith,7.9,https://movie.douban.com/subject/1298613/,撒哈拉
"史蒂文·席格,DMX,艾赛亚·华盛顿",Andrzej Bartkowiak,5.8,https://movie.douban.com/subject/1302348/,以毒攻毒
"米茨·鲁尔曼,哈丽特·戴尔,亚伦·佩德森,斯蒂芬·亨特,缇娅妮·库普兰",达米恩·鲍尔,5.1,https://movie.douban.com/subject/26951712/,杀戮场
"斯科特·麦克洛维茨,阿梅丽娅·华纳,肖恩·埃文斯,伊冯娜·斯特拉霍夫斯基",林根·路德维奇,6.4,https://movie.douban.com/subject/1860742/,迷失方向
"艾玛·考尔菲德,Chaney Kley",乔纳森·里贝斯曼,5.6,https://movie.douban.com/subject/1301178/,暗夜鬼叫声
"雨果·维文,安格斯·桑普森,雷·沃纳尔,伊文·莱斯利,杰夫·莫雷尔",安格斯·桑普森,6.9,https://movie.douban.com/subject/25842340/,骡子
梅尔·吉布森,彼得·威尔,7.5,https://movie.douban.com/subject/1296558/,加里波利
"梅丽尔·斯特里普,山姆·尼尔,大卫·霍夫林",弗雷德·谢皮西,7.7,https://movie.douban.com/subject/1299082/,暗夜哭声
"Billy Zane,Kristy Swanson,Treat Williams,Catherine Zeta-Jones",西蒙·温瑟,5.0,https://movie.douban.com/subject/1300846/,轰天奇兵
"沙利文·斯特普尔顿,杰西卡·德·古维,亚历克斯·罗素",托尼·艾尔斯,6.9,https://movie.douban.com/subject/25767323/,斩蛇
"李截,安娜·帕里约,帕特里克·博金",文森特·沃德,7.9,https://movie.douban.com/subject/1306814/,心中的地图
"Peta Sergeant,尼古拉斯·贝尔",Justin Dix,5.3,https://movie.douban.com/subject/10792637/,绝命空间
Alexandre Kyriakidis,Shaun M. Jefford,7.3,https://movie.douban.com/subject/3230162/,北京朋克
"艾玛·布斯,艾什莉 康宁思,史蒂芬·库里,苏茜·波特,达米安·德·蒙特马斯",本·扬,5.6,https://movie.douban.com/subject/26872505/,爱的猎犬
Russell Crowe,,8.2,https://movie.douban.com/subject/3525683/,列国图志之澳大利亚
"Simon Hinton,Alistair Duncan,Barbara Frawley",,8.6,https://movie.douban.com/subject/3068161/,哈克贝利芬历险记
Tim Pye,简·坎皮恩,7.3,https://movie.douban.com/subject/1963596/,果皮
"Clare Gibson,Gabrielle Meys,Sean Penney,David Shire,Nicola Bartlett",Aaron McCann,6.7,https://movie.douban.com/subject/25826573/,叫你丫逃学！
"保罗·霍根,琳达·科斯罗斯基,杰尔·伯恩斯,保罗·罗德里奇斯",西蒙·温瑟,6.5,https://movie.douban.com/subject/1298617/,鳄鱼邓迪在洛杉矶
"菲利普·格拉斯,埃罗尔·莫里斯,查克·克洛斯,斯科特·希克斯",Scott Hicks,8.4,https://movie.douban.com/subject/2992881/,格拉斯十二乐章
"泽维尔·塞缪尔 Xavier Samuel,Bren Foster,Miles Szanto",Craig Boreham,6.7,https://movie.douban.com/subject/5240507/,淹没
"Oscar Redding,Arthur Angel,Paul Ashcroft",Jonathan Auf Der Heide,6.5,https://movie.douban.com/subject/3728335/,范迪门斯地
"安东尼·拉帕格利亚 Anthony LaPaglia ....Roger East,内森·菲利普斯 Nathan Phillips,奥斯卡·伊撒克 Oscar Isaac ....Jose Ramos-Horta",Robert Connolly,7.5,https://movie.douban.com/subject/3794448/,巴里布
"Daniel O'Leary,Harry Catterns",Ed Aldridge,6.4,https://movie.douban.com/subject/2146278/,晒日线
"Anele Vellom,Lizo C. Makambi",Steve Pasvolsky,8.2,https://movie.douban.com/subject/1472915/,狗
"杰奎琳·麦根斯,麦尔斯·珀拉德,海莉·麦克尔希尼,本·莫特利,香农·贝里",约翰 V 索托,5.5,https://movie.douban.com/subject/30148558/,平行世界之门
"汤姆·威尔金森,乔尔·埃哲顿,杰·科特尼,梅利莎·乔治",Matthew Saville,5.4,https://movie.douban.com/subject/10755164/,罪不可赦
"大卫·古皮利,卢克·福特,博亚娜·诺瓦科维奇,加里·思韦特,Peter Djigirr",洛夫·德·希尔,7.5,https://movie.douban.com/subject/25867860/,查理之国
克里斯多弗·兰伯特,斯图尔特·戈登,6.6,https://movie.douban.com/subject/1293454/,魔鬼武器
Murray Fredericks,"Michael Angus,Murray Fredericks",8.2,https://movie.douban.com/subject/5935628/,鹽漠
,Guy Collins,8.3,https://movie.douban.com/subject/26727959/,孔明的陷阱
"Matilda Brown,Karl Beattie,Curt Bonnem,Marta Dusseldorp",Ariel Martin,6.7,https://movie.douban.com/subject/26781914/,智能妈妈
William McInnes,亚当·艾略特,6.4,https://movie.douban.com/subject/1772752/,表兄
"贝塔尼·维特莫尔,马修·惠德特,埃蒙·法伦,蒂尔达·格哈姆-哈维,丹妮艾尔·卡坦扎利蒂",Rosemary Myers,6.0,https://movie.douban.com/subject/26615736/,女孩睡着了
"杰克·汤普森,罗素·克劳,约翰·波尔森,德博拉·肯尼迪","乔夫·波顿,凯文·唐林",7.7,https://movie.douban.com/subject/1300583/,我们四个
"比吉特·米尼希迈尔,约瑟夫·贝尔比奇,约瑟夫·哈德,朵卡·格莱拉斯",沃尔夫冈·穆尔恩贝格,6.6,https://movie.douban.com/subject/3287665/,餐馆尸骨案
Garrett Davis,Kirsten Lepore,8.2,https://movie.douban.com/subject/27005358/,你好，陌生人
"丹妮艾尔·卡坦扎利蒂,凯莎·卡斯特-休伊斯,托妮·科莱特",Cathy Randall,7.6,https://movie.douban.com/subject/2134299/,我叫埃丝特·布鲁伯格
,,7.7,https://movie.douban.com/subject/2136930/,桑德坎(The Princess and the Pirate/SandoKan)
"萨姆·沃辛顿,艾德·奥克森博尔德,德波拉·梅尔曼,特里·诺瑞斯,大卫·文翰",罗伯特·康诺利,6.3,https://movie.douban.com/subject/25785003/,纸飞机
"唐纳德·普利森斯,加里·邦德,Chips Rafferty",特德·科特切夫,7.9,https://movie.douban.com/subject/1300892/,内陆惊魂
"迈克尔·卡顿,杰基·韦佛,约翰·霍华德,艾玛·汉密尔顿,大卫·菲尔德",杰瑞米·西姆斯,7.4,https://movie.douban.com/subject/25881495/,最后的士达尔文
Russell Crowe,Geoffrey Wright,7.6,https://movie.douban.com/subject/1295169/,无发无天
"克里夫·欧文,朱丽叶·比诺什,基冈·康纳·特雷西,艾米·布伦尼曼,布鲁斯·戴维森",弗雷德·谢皮西,6.8,https://movie.douban.com/subject/10754778/,文字与图像
"杜夫·龙格尔,小路易斯·格赛特,杰罗恩·克拉比,金·米约里,Bryan Marshall",马克·戈德布拉特,6.9,https://movie.douban.com/subject/1300701/,惩罚者
"格伦·弗雷,唐·亨利",Carol Dodds,9.6,https://movie.douban.com/subject/1875218/,老鹰乐队2004年墨尔本演唱会
,Peter Hannan,8.4,https://movie.douban.com/subject/6861857/,梦幻珊瑚海：唤醒
"瑞恩·柯万腾,Steve Bisley,克莱尔·范·德·波姆,Tommy Lewis,约翰·布鲁普顿",帕特里克·休斯,6.3,https://movie.douban.com/subject/4187362/,红色山丘
"乔纳森·赛加特,萨莎·霍勒,马特·丹,罗伊·戴维斯",莎拉·华特,6.3,https://movie.douban.com/subject/3568945/,无性的一年
"Richard Birrinbirrin,Johnny Buniyira,Peter Djigirr,Crusoe Kurddal",洛夫·德·希尔,6.8,https://movie.douban.com/subject/1790235/,十只独木舟
"罗南·基汀,劳拉·米歇尔·凯利,达斯汀·克莱尔",Mark Lamprell,6.5,https://movie.douban.com/subject/6736532/,女神
"Miranda Otto,Rebecca Frith,George Shevtsov",Shirley Barrett,7.7,https://movie.douban.com/subject/1484148/,爱的小夜曲
"瑞斯·伊凡斯,米兰达·奥图",Jeff Balsmeyer,7.3,https://movie.douban.com/subject/1308861/,不一样的奇遇
"Adrienne Pickering,Zoe Naylor,Damian Walshe-Howling",Andrew Traucki,5.1,https://movie.douban.com/subject/3279134/,大堡礁惊魂
"Kevin MacIsaac,Natalie Saleeba",Jackson Mullane,5.2,https://movie.douban.com/subject/26717064/,Red Nuts
"Caldwell Esselstyn Jr.,Howard Lyman,Neal Barnard",Aaron Scheibner,8.3,https://movie.douban.com/subject/4149250/,微妙的平衡：真相
"小库珀·古丁,埃曼妞·沃吉亚",布赖恩·特伦查德·史密斯,4.5,https://movie.douban.com/subject/21361965/,致命诡计
"梅尔·吉布森,西格妮·韦弗,琳达·亨特,迈克尔·墨菲",彼得·威尔,7.1,https://movie.douban.com/subject/1293780/,危险年代
"泽维尔·塞缪尔,萨姆·沃辛顿,莱斯丽-安·布莱德,Robyn Malcolm,麦尔斯·珀拉德",Ben Nott,7.0,https://movie.douban.com/subject/5298379/,冲浪兄弟
Hugo Weaving,John Weiley,8.6,https://movie.douban.com/subject/2243035/,野性澳洲
"爱德华·伍德华德,杰克·汤普森,约翰·沃特斯,布莱恩·布朗",布鲁斯·贝尔斯福德,7.5,https://movie.douban.com/subject/1294778/,驯马手莫兰特
"Brendan Cowell,Nicholas Bell,Richard Cawthorne",Matthew Saville,6.2,https://movie.douban.com/subject/2229436/,噪音
"罗泰尔·布鲁特,何家蓓,奥古斯特·斯彻伦伯格",布鲁斯·贝尔斯福德,7.5,https://movie.douban.com/subject/1293664/,黑袍
"Jamie Foxx,David Morse",安东尼·福奎阿,6.3,https://movie.douban.com/subject/1300871/,手到擒来
Petra Yared,Anthony Lucas,6.8,https://movie.douban.com/subject/1918881/,摒住呼吸
"卡兰·麦克奥利菲,亚瑟·安吉尔,Andy McPhee",Matthew Holmes,6.1,https://movie.douban.com/subject/26341927/,本·霍尔传奇
"马丁·弗瑞曼,安东尼·海斯,凯伦·皮斯托里斯,大卫·古皮利,苏茜·波特","Yolanda Ramke,Ben Howling",9.2,https://movie.douban.com/subject/26793157/,负重前行
"克里斯·奥多德,德波拉·梅尔曼,Jessica Mauboy,伊卡·戴维尔",韦恩·布莱尔,7.0,https://movie.douban.com/subject/5150433/,蓝宝石
"马修·勒·内维兹,瑞切尔·泰勒,杰克·汤普森",Brett Leonard,4.2,https://movie.douban.com/subject/1419956/,类人体
"盖·皮尔斯,安东尼·海斯,弗莱彻·汉弗莱斯",杰弗里·沃克,5.7,https://movie.douban.com/subject/10862816/,赌徒杰克：坏账
"David Wenham,Susie Porter",Jonathan Teplitzky,6.4,https://movie.douban.com/subject/1449403/,极乐人生
罗素·克劳,大卫·洛奇,7.2,https://movie.douban.com/subject/20399304/,红色情结
Alexander Archdale,Bruce Petty,6.0,https://movie.douban.com/subject/2078515/,闲暇
"Lachlan Buchanan,Xavier Samuel,Reshad Strik",Dan Castle,6.4,https://movie.douban.com/subject/3024828/,冲浪少年
"休·劳瑞,伊卡·戴维尔,凯瑞·福克斯",安德鲁·亚当森,6.9,https://movie.douban.com/subject/3914503/,孤岛浮生
,Aggelos Papantoniou,6.3,https://movie.douban.com/subject/26896900/,地铁女士
"Cody Fern,Toby Wallace",Nicholas Verso,6.8,https://movie.douban.com/subject/24751743/,我最后一次见到理查德
,Ariel Kleiman,8.4,https://movie.douban.com/subject/4813643/,深海人浅
"Colleen Fitzpatrick,Paul Chubb,Katharine Cullen",简·坎皮恩,6.9,https://movie.douban.com/subject/3094769/,一个女孩的故事
韦德·布里格斯,Michael Spiccia,7.0,https://movie.douban.com/subject/10748107/,囚徒
"艾米丽·巴克雷,斯蒂夫·巴什托尼,迈克尔·多曼,安东尼·海斯,吉娜维夫·莱蒙",Paul Goldman 保罗·高曼,5.1,https://movie.douban.com/subject/1961841/,完美罪案
,Timo Novotny,8.5,https://movie.douban.com/subject/3110635/,回转生活
,Craig Leeson,8.9,https://movie.douban.com/subject/26940487/,塑料海洋
"大卫·阿奎特,迈克·克拉克·邓肯,莱丝莉·比伯",约翰·怀特塞尔,7.1,https://movie.douban.com/subject/1295861/,天翻地覆
"Nash Edgerton,Teresa Palmer,Warwick Thornton",纳许·艾德顿,7.1,https://movie.douban.com/subject/6311043/,熊
"Tonia Renee,Bret Kennedy",Gregory Connors,4.2,https://movie.douban.com/subject/3617965/,黑暗禁城
"约翰·库萨克,詹妮弗·卡朋特,达拉斯·罗伯特斯,梅·惠特曼,索尼亚·瓦格尔",Morgan O'Neill,5.5,https://movie.douban.com/subject/2301913/,绑架悬案
"艾曼纽·贝阿,卢夫斯·塞维尔",法布里斯·度·沃尔斯,5.1,https://movie.douban.com/subject/2357398/,回魂
"梅尔·吉布森,安东尼·霍普金斯,劳伦斯·奥利弗,丹尼尔·戴-刘易斯,连姆·尼森",罗杰·唐纳森,7.4,https://movie.douban.com/subject/1294765/,叛舰喋血记
"盖·皮尔斯,艾玛·布斯,Eddie Baroo",杰弗里·沃克,5.7,https://movie.douban.com/subject/10862807/,赌徒杰克：黑潮
Leah Vandenberg,Matthew Richards,7.5,https://movie.douban.com/subject/26822999/,威利·宾汉的消失
"Joe Cross,Dick Gregory,Phil Riverstone",Joe Cross,8.0,https://movie.douban.com/subject/5951576/,濒死病胖子的减肥之旅
Brad McMurray,Steven Kastrissios,5.2,https://movie.douban.com/subject/3112110/,骑士
,Stephen MacLean,6.8,https://movie.douban.com/subject/1297688/,环游世界八十天
"文森特·卡索,杰里米·查布里,弗洛伦丝·梅扎拉,埃斯特·布雷舍·托卡列夫,夏洛特·米勒",阿里尔·克莱曼,6.6,https://movie.douban.com/subject/25722010/,父亲的信徒
萨莎·霍勒,约翰·卡兰,7.2,https://movie.douban.com/subject/1771911/,生命中最痛
"亚伦·佩德森,亚历克斯·罗素,杰基·韦佛,大卫·文翰,大卫·古皮利",伊凡·森,5.6,https://movie.douban.com/subject/26797430/,戈德斯通
"Alex O'Loughlin,Patrick Thompson,Gabby Millgate,Jack Thompson,Rose Ashton",Brett Leonard,6.3,https://movie.douban.com/subject/1756210/,恶感
"菲尔·柯林斯,雨果·维文,约瑟芬·白内斯",斯蒂芬·埃利奥特,6.2,https://movie.douban.com/subject/2326798/,骗局
,卢卡斯·施兰克/Lukas Schrank,7.2,https://movie.douban.com/subject/26594706/,不存在的航线：来自曼斯岛的电话
"Kentaro Hara,Kuni Hashimoto,Shingo Usami",Ben West,6.4,https://movie.douban.com/subject/26362428/,河豚和章鱼
"Hannah Marshall,阿利克斯·迪米崔德斯",Hugh Sullivan,6.4,https://movie.douban.com/subject/25909770/,无限循环
"苏珊·萨兰登,山姆·尼尔,艾米莉·布朗特",Ann Turner,6.2,https://movie.douban.com/subject/1767064/,不可抗拒
"朱迪·戴维斯,山姆·尼尔,温迪·休斯,罗伯特·格拉布,马克斯·库伦",吉莉安·阿姆斯特朗,7.4,https://movie.douban.com/subject/1305274/,我的璀璨生涯
"Adam Dunn,Joy Smithers",Daniel Reisinger,6.1,https://movie.douban.com/subject/26650770/,心想事成：一个Facebook童话
"Henry Thomas,Bruce Spence,Hugh Keays-Byrne",Franc Roddam（佛兰克 罗丹）,7.5,https://movie.douban.com/subject/1297396/,白鲸
"Eddie Murphy,Randy Quaid,Rosario Dawson",罗恩·安德伍德,5.8,https://movie.douban.com/subject/1297971/,星际冒险王
"克莱尔·范·德·波姆,苏茜·波特",Brendan Maher,7.0,https://movie.douban.com/subject/5153598/,战争姐妹
"Michael Lake,Melissa Davis,Rhys Davis",亚历克斯·普罗亚斯,7.8,https://movie.douban.com/subject/2279033/,空气之魂，云之精灵
"杰弗里·拉什,朱迪·戴维斯,杰西·斯宾塞",拉塞尔 马尔卡希 (Russell Mulcahy),7.7,https://movie.douban.com/subject/1308176/,脱泳而出
"诺亚·泰勒,坦迪·牛顿,妮可·基德曼,娜奥米·沃茨",约翰·杜根,6.7,https://movie.douban.com/subject/1301458/,调情
"Matt Levett,Tom O'Sullivan",Dean Francis,6.1,https://movie.douban.com/subject/2335753/,男生语法
"Nick Robins,Ned Baulderstone,Christine Harwood",Nima Raoofi,6.9,https://movie.douban.com/subject/26383747/,我的鞋
"Bill Waters,Sue Baker,Steve Baker",Steve Baker,7.6,https://movie.douban.com/subject/25747560/,33又3/4岁的宅男阿雷
,罗本·纽厄尔(Robin Newell),6.5,https://movie.douban.com/subject/10549241/,临刑会见
"Indiana Evans,Alexandra Davies",Brian Trenchard-Smith,4.6,https://movie.douban.com/subject/4074745/,极地寒流
"卡琳娜·卡普尔,卡卓儿,约翰·亚伯拉罕",施坦·马洛萨,7.5,https://movie.douban.com/subject/5349552/,我们是一家人
"Emma Lung ... Crystal,Veronica Sywak ... Ashley,Saskia Burmeister ... Vanya,Masa Yamaguchi ... Dyce,Todd MacDonald ... Tom",Dee McLachlan,7.5,https://movie.douban.com/subject/2256770/,窘境
"Barry Otto,Nick Carpenter",Dan Castle,6.9,https://movie.douban.com/subject/1994632/,访客
"约什·劳森,瑞切尔·泰勒,克里斯蒂安·克拉克,乔迪·戈登",罗波 斯提齐,6.5,https://movie.douban.com/subject/6857807/,有要问本的问题吗？
"卡梅隆·达多,Penne Hackforth-Jones,约翰·贝西",克劳德·福涅尔,8.8,https://movie.douban.com/subject/1478041/,金色小提琴
"Rocky McKenzie,Jessica Mauboy,Ernie Dingo,Missy Higgins,Geoffrey Rush",Rachel Perkins,5.7,https://movie.douban.com/subject/4170369/,美丽新世界
"Peter Phelps,Tony Bonner,安东尼·安德鲁斯",西蒙 温瑟尔 (Simon Wincer),8.6,https://movie.douban.com/subject/1306642/,轻骑兵
"William McInnes,Justine Clarke,安东尼·海斯",莎拉·华特,7.5,https://movie.douban.com/subject/1457298/,回望
William McInnes,亚当·艾略特,7.2,https://movie.douban.com/subject/1772754/,舅舅
"Jensen ackles,Poppy Montgomery",Joyce Chopra,6.4,https://movie.douban.com/subject/2031453/,梦露传
"皮雅·米兰达,雨果·维文",Paul McDermott,6.1,https://movie.douban.com/subject/3013563/,吃蜜蜂的女孩
,比尔 古登泰格,8.5,https://movie.douban.com/subject/26383942/,唯有死亡
"Noam Chomsky,Mark Achbar","Mark Achbar,Peter Wintonick",8.8,https://movie.douban.com/subject/1999641/,制造共识：乔姆斯基论媒体
萨曼莎·莫顿,Anthony Lawrence,6.4,https://movie.douban.com/subject/3536737/,寻马
Alex Scott,David Flatman,7.7,https://movie.douban.com/subject/1868646/,澳洲奇趣之旅
"柯蒂·斯密特-麦菲,诺亚·泰勒,理查德·劳斯伯格,杰基·韦佛,米瑞安·玛格莱斯",Alexs Stadermann,6.7,https://movie.douban.com/subject/25881500/,玛亚历险记
"凯蒂·霍尔姆斯,本杰明·布拉特,佐伊·丹斯切尔,查理·汉纳姆,弗莱德·沃德",斯蒂芬·加汉,5.9,https://movie.douban.com/subject/1296526/,失魂落魄
"Jim Smith,Angela Lim",Aaron Nassau,5.4,https://movie.douban.com/subject/25965482/,鸟盆
"休·格兰特,塔拉·菲茨杰拉德,山姆·尼尔,艾拉·麦克弗森",约翰·杜根,6.8,https://movie.douban.com/subject/1295724/,相约在今生
罗伯特·英格伦,托比·霍珀,6.4,https://movie.douban.com/subject/1917409/,绞肉机
约翰·梅永,彼得·威尔,6.0,https://movie.douban.com/subject/1296900/,巴黎食人车
"Jack Finsterer,Travis McMahon,Simon Stone",Alister Grierson,6.6,https://movie.douban.com/subject/1871811/,苦战科科达
ACDC,David Mallet,9.5,https://movie.douban.com/subject/3425812/,AC/DC: Live at Donington
"Miranda Otto,Frances O'Connor,Deborra-Lee Furness,Sophie Lowe,Victoria Haralabidou",Ana Kokkinos,7.2,https://movie.douban.com/subject/3214106/,保佑
Jim Jefferies,,8.2,https://movie.douban.com/subject/6973898/,Jim Jefferies Alcoholocaust
"格列塔·斯卡奇,安东尼·拉帕格利亚",Kate Woods,6.9,https://movie.douban.com/subject/1302810/,寻找阿拉布兰蒂
"瑞恩·柯万腾,克莱尔·鲍温,瑞安·柯尔",彼得·汤普曼,5.2,https://movie.douban.com/subject/6857805/,不宜生育
"Mandahla Rose,Brett Rogers,Julia Billington",Louise Wadley,5.5,https://movie.douban.com/subject/26612590/,关于E的全部
"Jason Donovan,Koji Tamaki",Michael Pattinson,8.5,https://movie.douban.com/subject/1305876/,最后一颗子弹
Jim Jefferies,,8.2,https://movie.douban.com/subject/3739777/,Jim Jefferies: I Swear to God
托比·施密茨,Sophie Hyde,7.5,https://movie.douban.com/subject/5196076/,与你最后的十小时
"Geraldine Hakewill,Billy Milionis,Henry James",Bill Bennett,4.1,https://movie.douban.com/subject/3808646/,无人
"芬妮·阿尔丹,杰瑞米·艾恩斯,切基·卡尤",让·雅克·安德里恩,8.1,https://movie.douban.com/subject/2303375/,澳大利亚
"Michael Caton,Anne Tenney,Stephen Curry",罗波 斯提齐,7.9,https://movie.douban.com/subject/1297444/,城堡
"Matthew Perry,Dylan McDermott",Damon Santostefano,6.9,https://movie.douban.com/subject/1297660/,三人探戈
,Parvez Sharma,7.8,https://movie.douban.com/subject/2936171/,捍卫爱情
"Gerard Kennedy,Andrew Daddo,Ian Smith,Regina Gaigalas,Vincent Gil",Philip Brophy,5.5,https://movie.douban.com/subject/1982824/,融尸荡魄
"海伦·米伦,莎拉·斯努克,杰森·克拉克,安格斯·桑普森,布鲁斯·斯宾斯","迈克尔·斯派瑞,彼得·斯派瑞",5.1,https://movie.douban.com/subject/3387688/,温彻斯特
"Johan Earl,Tim Pocock,Martin Copping,Denai Gracie,Sarah Mawbey","Johan Earl,Adrian Powers",4.8,https://movie.douban.com/subject/10529437/,勇闯禁地
"Guy Pearce,Helena Bonham Carter",迈克尔·彼得罗尼,7.7,https://movie.douban.com/subject/1308169/,记忆的呼喊
"萝丝·拜恩,雨果·维文,凯特·布兰切特,米兰达·奥图,理查德·劳斯伯格","Jonathan auf der Heide,托尼·艾尔斯,Jub Clerc,罗伯特·康诺利,Shaun Gladwell,Rhys Graham,贾斯汀·库泽尔 ,Yaron Lifschitz,安东尼·卢卡斯,克莱尔·麦卡锡,伊恩·麦杜思,Ashlee Page,Stephen Page,西蒙·斯通,沃威克·桑顿,米娅·华希科沃斯卡,大卫·文翰",6.2,https://movie.douban.com/subject/10562665/,变向
"劳拉·琳妮,加布里埃尔·伯恩,克里斯·海伍德",Ray Lawrence,6.0,https://movie.douban.com/subject/1837147/,湖边疑云
"尼克·凯夫,Barry Adamson",,8.7,https://movie.douban.com/subject/1477106/,Nick Cave & the Bad Seeds: The Videos
Toni Collette,Sue Brook,6.6,https://movie.douban.com/subject/1340520/,日本故事
"Luke Mullins,Martin Sharpe",Grant Scicluna,6.2,https://movie.douban.com/subject/10486193/,霓虹肤
"Estella Warren,Victor Parascos",David Lister,4.0,https://movie.douban.com/subject/4138533/,美女与野兽
前田敦子,,9.1,https://movie.douban.com/subject/25247486/,前田敦子：前往珍稀动物的栖息地澳大利亚
"Ryan Alosio,Marc Bacher,Maxine Bahns,Brianna Brown",罗伊·雷内,4.3,https://movie.douban.com/subject/4890971/,失落的部族
"米娅·华希科沃斯卡,杰弗里·拉什,Samuel Benedict,大卫·文翰",布莱登·佛雷切,8.7,https://movie.douban.com/subject/26423181/,王尔德的夜莺与玫瑰
"休·杰克曼,克劳迪娅·卡万,安琪·米利肯,Jeanie Drynan",Antony J. Bowman,7.0,https://movie.douban.com/subject/2011005/,言情小说
鲁比·罗丝,Phillip Lopez,8.7,https://movie.douban.com/subject/26247850/,Break Free
"Akshay Kumar,Katrina Kaif,Om Puri",Anees Bazmee,7.3,https://movie.douban.com/subject/3078736/,辛格为王
"Jamie Croft,黛博拉-李·福奈丝,约翰·沃特斯",马里奥·安德烈奇奥,8.1,https://movie.douban.com/subject/2011642/,金刚鹦鹉
"苏菲·洛,瑞斯·维克菲尔德,雅各布·雅迪斯",苏菲·洛,6.9,https://movie.douban.com/subject/21883269/,当妓女碰上男妓
"克里斯蒂安·克拉克,克里斯托弗·艾甘","Jeffrey Gerritsen,John V. Soto",4.0,https://movie.douban.com/subject/3750866/,空宅鬼影
米娅·华希科沃斯卡,Spencer Susser,6.4,https://movie.douban.com/subject/3701448/,我爱莎拉简
"伊文·莱斯利,托比·施密茨,马修·纽顿,Tina Bursill,布伦丹·考威尔",马修·纽顿,6.2,https://movie.douban.com/subject/3595689/,三盲鼠
"艾瑞克·巴纳,Simon Lyndon,比尔·扬",安德鲁·多米尼克,6.6,https://movie.douban.com/subject/1299426/,神鬼剁手
"克里斯托弗·卡比,Shaun Micallef",Jesse O'Brien,4.4,https://movie.douban.com/subject/26719360/,箭头
"关宝慧,陈启泰,李炜尚",罗卓瑶,6.8,https://movie.douban.com/subject/1305280/,浮生
"Aidan Calabria ...  Gus,Will Field ...  Noah",Craig Boreham,6.4,https://movie.douban.com/subject/3911665/,爱之噬
安娜·丽丝·菲利普斯,Nick Robertson,4.1,https://movie.douban.com/subject/26606901/,狼群
"盖·皮尔斯,克劳迪娅·卡万",Megan Simpson Huberman,8.0,https://movie.douban.com/subject/2117675/,与冤家约会
Nicole Kidman,Brian Trenchard-Smith,6.9,https://movie.douban.com/subject/1301456/,小子万岁
"Ashleigh Cummings,Lily Sullivan,Toby Wallace",Rhys Graham,5.4,https://movie.douban.com/subject/24873683/,丰硕
"Emily Hart,康妮·布里登,科林·弗瑞尔斯",纳迪娅·塔斯,6.5,https://movie.douban.com/subject/2084493/,童星秀兰·邓波儿传
"约翰·哈格里夫斯,Briony Behets",柯林·艾格斯顿,6.4,https://movie.douban.com/subject/1766677/,漫长假期
Alex Scott,John Weiley,7.6,https://movie.douban.com/subject/1292475/,南极洲
"大卫·莱昂斯,Marco Rodríguez",Vincent Laforet,5.6,https://movie.douban.com/subject/25769164/,莫比乌斯
Bridget Neval,Brett Anstey,3.5,https://movie.douban.com/subject/5168947/,拂晓鬼上身
"艾瑞克·阿瓦利,麦克·多普德,克里夫·西蒙,Paul O'Brien,乔什·奥肯登","Ashlee Jensen,Terrance M. Young",2.9,https://movie.douban.com/subject/27625618/,伊甸园计划
"斯泰西·基齐,杰米·李·柯蒂斯,Marion Edward",理查德·富兰克林,6.8,https://movie.douban.com/subject/1295449/,血溅回旋路
"杰西卡·德·古维,内森·菲利普斯,莎拉·斯努克",扎克·希尔迪奇,5.9,https://movie.douban.com/subject/21899475/,最后之时
,"James Colquhoun,Laurentine Ten Bosch",8.5,https://movie.douban.com/subject/21351416/,渴望变革
"戴安·琳恩,维果·莫腾森,安娜·帕奎因,列维·施瑞博尔",托尼·戈德温,6.7,https://movie.douban.com/subject/1295017/,月球漫步
"蒂姆·克里,萨曼莎·玛西丝,克里斯蒂安·史莱特,罗宾·威廉姆斯",Bill Kroyer,6.9,https://movie.douban.com/subject/1788980/,最后的雨林
,,9.3,https://movie.douban.com/subject/26921918/,不可说
"莱维·米勒,雨果·维文,托妮·科莱特,丹·威利,麦尔斯·珀拉德",Rachel Perkins,6.3,https://movie.douban.com/subject/26648419/,贾斯珀·琼斯
Mark Mitchell,Mike Hollands,6.1,https://movie.douban.com/subject/1783792/,Piñata
"Suzanne Dervish-Ali,Megan Peta Hill,Joel Hogan,Pete Valley,Tara Wraith",Gerald Rascionato,3.6,https://movie.douban.com/subject/26892964/,颤栗汪洋3
"莱纳斯·罗彻,丹妮尔·考麦克,罗伊·比令,Rebecca Hobbs,彼得·霍斯金",约翰·波尔森,8.3,https://movie.douban.com/subject/1781924/,生命奇色
Adam Sutton,"Helen Grasswell,Ian Harley",7.3,https://movie.douban.com/subject/4917366/,澳洲故事 - 牛仔亚当
艾伦·布朗,"简·坎皮恩,Gerard Lee",8.2,https://movie.douban.com/subject/1982784/,私语时刻
"诺亚·泰勒,本·门德尔森",约翰·杜根,7.7,https://movie.douban.com/subject/1300922/,失声岁月
"Dannielle Hall,Damian Pitt",Ivan Sen,7.6,https://movie.douban.com/subject/1421370/,云层以下
William McInnes,亚当·艾略特,7.1,https://movie.douban.com/subject/1772751/,兄弟
Adam Baldwin,Colin Budds,4.6,https://movie.douban.com/subject/1305634/,化身战士
"托比亚斯·莫雷蒂,詹妮特·海因",David Rühm,7.1,https://movie.douban.com/subject/25976690/,恋上你的血
Tim Minchin,Rhian Skirvey,9.0,https://movie.douban.com/subject/3893420/,Tim Minchin: So Live
"丽莎·夏佩尔,杰夫·莫雷尔",Rupert Glasson,4.8,https://movie.douban.com/subject/4176870/,棺材石
Jim Jefferies,,7.9,https://movie.douban.com/subject/11600859/,Jim Jefferies: Fully Functional
"琼·希克森,约翰 梅尔德-布朗",John Davies,8.7,https://movie.douban.com/subject/2376302/,沉睡的谋杀案
"伊恩·麦克莱恩,凯特·布兰切特",Variety Studio,9.1,https://movie.douban.com/subject/26732562/,Actors on Actors - Cate Blanchett and Ian McKellen
"汤姆·伯林森,Terence Donovan,柯克·道格拉斯,西格丽德·索顿,杰克·汤普森",乔治·米勒,6.9,https://movie.douban.com/subject/1296810/,冰雪河来客
"Neel Kolhatkar,Cait Burley,Romy Bartz,Caspar Hardarker,Jonathan Lo",Neel Kolhatkar,7.4,https://movie.douban.com/subject/26951595/,现代教育
"哈里森·吉尔伯特森,艾曼纽·贝阿,瑞切尔·布莱克",Stephen Lance,5.7,https://movie.douban.com/subject/21348996/,我的主人
"Danièle Ferraro,Michelle Wolff,Sally Kirkland",Sascha Rice,5.4,https://movie.douban.com/subject/3884182/,芒果之吻
"Rowan McNamara,Marissa Gibson,Mitjili Napanangka Gibson,Scott Thornton",沃威克·桑顿,7.0,https://movie.douban.com/subject/3575983/,赛门和黛利拉
"Matthew Lillard,Bindi Irwin,Toby Wallace,Sebastian Gregory,John Waters",布兰登·马赫,6.0,https://movie.douban.com/subject/24893422/,重返尼姆岛
"Matt James,Paul Pantano",Andy Sutton,5.9,https://movie.douban.com/subject/26855052/,腹中之敌
,,7.3,https://movie.douban.com/subject/2264576/,葛雷奥特曼 怪兽击灭作战
"基兰·达西-史密斯,Brendan Donoghue,塔拉·莫里斯",鲁克·朵兰,7.5,https://movie.douban.com/subject/3347130/,神秘鱼
"加里·思韦特,Bogdan Koca",洛夫·德·希尔,6.7,https://movie.douban.com/subject/1307250/,超完美复仇
"Susie Porter,Kelly McGillis",Samantha Lang,5.2,https://movie.douban.com/subject/1420068/,玻璃缘
,"Peter Templeman,制片：Stuart Parkyn",6.8,https://movie.douban.com/subject/1980692/,救世主
"Yvonne Strahovski,Peter Dinklage,Megan Gale,Bridie Carter,Brendan Cowell",Daina Reid,6.4,https://movie.douban.com/subject/3718833/,我也爱你
,Luke Saunders,6.3,https://movie.douban.com/subject/26967912/,渔夫
,,7.1,https://movie.douban.com/subject/5446171/,世界致命动物系列：澳大利亚篇
"伊文·莱斯利,马尔顿·索克斯,柯蒂·斯密特-麦菲,让-弗朗索瓦·巴尔梅,艾格尔·纳尔",Tony Krawitz,5.7,https://movie.douban.com/subject/10800647/,死亡欧洲
"Steve Mouzakis,Leon Cain",Dru Brown,6.9,https://movie.douban.com/subject/26429556/,自杀理论
"大卫·罗伯茨,琼妮·萨缪尔",Matt Drummond,4.2,https://movie.douban.com/subject/27043980/,宠物恐龙
"Laurel Aitken,Buster Bloodvessel,Jimmy Pursey",Daniel Schwe,8.0,https://movie.douban.com/subject/2043702/,光头党态度
"马修·福斯特,夏绿蒂·葛森,安德鲁·W·索尔,大卫 沃尔菲","James Colquhoun,Carlo Ledesma",7.8,https://movie.douban.com/subject/3732488/,健康饮食
"本·布劳德,克劳迪娅·布莱克,琪琪·艾德莉",布赖恩·汉森,6.1,https://movie.douban.com/subject/2059359/,遥远星际：和平使者之战
"皮特·波斯尔思韦特 Pete Postlethwaite,保罗·霍根 Paul Hogan",Dean Murphy,7.2,https://movie.douban.com/subject/1994839/,怪异同床人
Mark Taylor,Michael Shanks,6.4,https://movie.douban.com/subject/26756890/,时光陷阱
"Galvin Scott Davis,Linal Haft,Jai Koutrae",Galvin Scott Davis,6.2,https://movie.douban.com/subject/1962431/,生死对决
汉斯-于尔根·西贝尔伯格,"David Barison,Daniel Ross",8.9,https://movie.douban.com/subject/1982304/,伊斯特河
"丹尼尔·韦伯,Miles Szanto,Charlotte Best,Nadim Kobeissi,Ian Roberts",Craig Boreham,6.1,https://movie.douban.com/subject/21883154/,踏步青春
Bernard Derriman,Clayton Jacobson,8.0,https://movie.douban.com/subject/1918760/,凯利
,Franco di Chiera,5.5,https://movie.douban.com/subject/5157182/,乖孩子
"奇克·盖瑞,皮雅·米兰达",亚历克斯·普罗亚斯,6.5,https://movie.douban.com/subject/1307032/,车库时光
David Hobson,Peter Butler,9.1,https://movie.douban.com/subject/2999288/,奥菲欧与尤丽狄茜
Cristina Frias,扬·阿尔蒂斯-贝特朗,9.3,https://movie.douban.com/subject/5151494/,60亿其他人
,Luke Randall,6.7,https://movie.douban.com/subject/3724530/,抵达
"多米尼克·珀塞尔,比安卡·劳森,罗伯特·泰勒",乔恩·休伊特,4.5,https://movie.douban.com/subject/26430121/,土耳其射击
"Russell Crowe,Youki Kudoh,Ray Barrett,Kenji Isomura,Robert Mammone",Craig Lahiff,7.0,https://movie.douban.com/subject/1302723/,末路鸳鸯
"William Sadler,James Marsden,Bruce Greenwood",戴维 纳特 (David Nutter),5.3,https://movie.douban.com/subject/1296934/,恐怖怪谭
Johnny Palmiero,Toni Harman,7.0,https://movie.douban.com/subject/5316775/,老豆的乖乖仔
"亚当·加西亚,萨姆·沃辛顿,威廉·扎帕",Dein Perry,6.6,https://movie.douban.com/subject/1305649/,脚斗士
,Robert Mond,5.3,https://movie.douban.com/subject/26636615/,受试者
"Phillip Noyce,Everlyn Sampi,James Thomas,Laura Monaghan",Darlene Johnson,7.7,https://movie.douban.com/subject/1957901/,防兔篱笆
,拉斯·霍尔斯道姆,8.0,https://movie.douban.com/subject/1298177/,阿巴合唱团
"Rose Byrne,Hugo Weaving",Jonathan Ogilvie,6.3,https://movie.douban.com/subject/2137144/,温柔的钩子
"迈克尔·多曼,简·巴德勒,杰西卡·玛莱斯",John V. Soto,4.8,https://movie.douban.com/subject/4181129/,针
"维林斯·豪塞尔,李·厄米,Robert Arevalo",布赖恩·特伦查德·史密斯,7.2,https://movie.douban.com/subject/1300457/,攻陷葛兰高地
"苏珊·潘哈里冈,罗伯特·赫普曼,朱丽娅·布莱克",理查德·富兰克林,6.2,https://movie.douban.com/subject/2019965/,帕特里克
"凯瑞·福克斯,汤姆·格林,Reef Ireland,Eddie Baroo,Lester Ellis Jr.",Grant Scicluna,6.5,https://movie.douban.com/subject/26598816/,谜河
"Sam Worthington,Victoria Hill,Lachy Hulme",Geoffrey Wright,5.3,https://movie.douban.com/subject/1858266/,马克白
"乔尔·埃哲顿,泰莉莎·帕尔墨,安东尼·斯塔尔",基兰·达西-史密斯,5.3,https://movie.douban.com/subject/5282523/,愿你在此
,希斯·莱杰,8.5,https://movie.douban.com/subject/24843537/,谦逊耗子乐队：鼠王
"Marc Gallagher,Darcy Prender Gast",Sanjay Sooknanan,5.6,https://movie.douban.com/subject/6757156/,动物饲养员雷恩
"山姆·尼尔,Billy Mitchell",罗波 斯提齐,7.2,https://movie.douban.com/subject/1306521/,不简单的任务
"Daniel Fraser,Eleanor Wyld,Dylan Llewellyn",Darren Paul Fisher,6.6,https://movie.douban.com/subject/25777350/,心动频率
ROWLAND S. HOWARD,"Richard Lowenstein,Lynn-Maree Milburn",9.0,https://movie.douban.com/subject/6738795/,AUTOLUMINESCENT: ROWLAND S. HOWARD
"杰弗里·拉什,夏洛特·兰普林,朱迪·戴维斯",Fred Schepisi,7.3,https://movie.douban.com/subject/4815626/,风暴之眼
"Gregory Harrison,Arkie Whiteley,Bill Kerr",Russell Mulcahy,6.5,https://movie.douban.com/subject/3036789/,猎魔
,丹尼斯·杜根,6.3,https://movie.douban.com/subject/1299971/,抢救疑情大兵
"丹尼尔·阿姆拉姆,恩尼奥·凡塔斯蒂基尼,杰西卡·玛莱斯",Shawn Seet,5.8,https://movie.douban.com/subject/4006292/,用心出拳
"Darius Williams,Kate Rasmussen,Joe Bistaveous,Juliette Frederick,Vincent Naviti",布瑞恩·德拉蒙德,4.3,https://movie.douban.com/subject/26067962/,恐龙岛
"拉达·米切尔,苏珊娜·约克",理查德·富兰克林,4.1,https://movie.douban.com/subject/2154403/,鬼府访客
"Barbara Frawley, Joan Bruce,Spike Milligan,June Salter,Ross Higgins,Lola Brooks",Yoram Gross,8.5,https://movie.douban.com/subject/2381955/,多特和袋鼠
"米兰达·奥图,皮特·奥布莱恩,Lorraine Bayly",Di Drew,7.2,https://movie.douban.com/subject/2123117/,深夜中的呼唤
,香特尔·阿克曼,7.1,https://movie.douban.com/subject/1307538/,另一边
艾历克斯·奥洛林,Anna Reeves,6.9,https://movie.douban.com/subject/1340521/,牡蛎农场
"约什·劳森,达蒙·海瑞曼",德林·西尔,7.4,https://movie.douban.com/subject/27046444/,11点
"玛格达·苏班斯基,Quentin Kenihan",洛夫·德·希尔,7.2,https://movie.douban.com/subject/3093667/,普伦克博士
"安东尼·拉帕格利亚,朱丽娅·布莱克,John Clarke,Justine Clarke",马修·塞维尔,7.0,https://movie.douban.com/subject/26306959/,日长似岁
"杰森·克拉克,艾玛·布斯,大卫·莱昂斯",Craig Lahiff,5.9,https://movie.douban.com/subject/5157013/,转弯
"史蒂夫·厄尔温,Terri Irwin",John Stainton,7.8,https://movie.douban.com/subject/1420026/,鳄鱼捕手
"Tilda Cobham-Hervey,Del Herbert-Jane,Beau Travis Williams",Sophie Hyde,6.8,https://movie.douban.com/subject/25785122/,52个星期二
"亚伦·佩德森,瑞恩·柯万腾,雨果·维文",Ivan Sen,6.5,https://movie.douban.com/subject/11026307/,神秘之路
"盖·皮尔斯,罗伊·比令,肖恩·雅克博森,德波拉·梅尔曼,文斯·科洛斯莫",杰弗里·沃克,5.3,https://movie.douban.com/subject/25866222/,赌徒杰克：死点
"Liam Hall,Samuel Levi",Simon Savory,5.2,https://movie.douban.com/subject/26290831/,我们很好
"约翰·库萨克,托马斯·简,佐伊·文图拉,克里斯多夫·莫利斯,Jerome Ehlers",Brian Trenchard-Smith,3.9,https://movie.douban.com/subject/25808127/,惊天追逐
"Ben Cross,Lisa McCune,Sonia Todd",Robert Marchand,9.2,https://movie.douban.com/subject/1793083/,土豆工厂
"斯蒂芬·多尔夫,阿明·缪勒-斯塔尔,约翰·吉尔古德,摩根·弗里曼",约翰·G·艾维尔森,7.5,https://movie.douban.com/subject/1300405/,情系我心
,David Shadrack Smith,7.4,https://movie.douban.com/subject/6961262/,世界尽头的光明：梦想守护者
"Rebecca Smart,Victoria Longley",Ann Turner,7.6,https://movie.douban.com/subject/3603058/,希丽亚
,Anna Broinowski,7.5,https://movie.douban.com/subject/24845188/,解构朝鲜电影
"亚伦·布莱比,丽贝卡·基伯尼",Peter Fisk,8.9,https://movie.douban.com/subject/1829824/,玫瑰之日
,,8.3,https://movie.douban.com/subject/6396706/,大堡礁
"Adam Dunn,Anthony Gee,Isaro Kayitesi,Alison Benstead,Anthony Phelan",Antonio Oreña-Barlin,6.5,https://movie.douban.com/subject/26834212/,招疯引蝶
"Radha Mitchell,Josh Lucas",Scott Reynolds,6.4,https://movie.douban.com/subject/1301054/,陌路杀机
"Katherine Hicks,Anya Beyersdorf,Valerie Bader",John Winter,5.4,https://movie.douban.com/subject/6530441/,性爱告白
"Amy Cater,Megan Spencer,Jimstar,Butch Midway,Anthea Eaton",Anna Brownfield,4.7,https://movie.douban.com/subject/4116272/,乐队之路
"Darren Hayes,Daniel Jones,Savage Garden",,9.0,https://movie.douban.com/subject/1875744/,Savage Garden - Superstars and Cannonballs: Live and on Tour in Australia
"Tristan Burke,Walter Currie,Dylan Pretty-Riley,Kyle Taylor,Nick Thomas",Julius Avery,6.8,https://movie.douban.com/subject/3081135/,杰瑞可以
,"Jungeun Kim,Calvin Sims,Plamen Gerasimov",7.9,https://movie.douban.com/subject/6920105/,North Korea
"Glory Annen,Joni Flynn",John D. Lamond,5.6,https://movie.douban.com/subject/3567498/,费利西蒂
"Viva Bianca,Grant Bowler,Luke Arnold",Tony Tilse,4.3,https://movie.douban.com/subject/5325343/,岩岛惊魂
"Julie Bennett,Regis Cordic,Ross Martin","Joseph Barbera,William Hanna",7.2,https://movie.douban.com/subject/3534075/,格列佛游记
"戴安·琳恩,唐纳德·萨瑟兰,西西莉·泰森,安妮·班克罗夫特,布莱思·丹纳",Ken Cameron,8.5,https://movie.douban.com/subject/1295365/,往日情怀
,Peter Tscherkassky,7.2,https://movie.douban.com/subject/2053433/,光与声机器的使用指南
,Gale Edwards,6.5,https://movie.douban.com/subject/5155201/,心跳之外
"Cameron Ford - Ben,Josh Roberts - Chill",Kieran Galvin,6.1,https://movie.douban.com/subject/4927366/,燃烧的男孩
利安娜·瓦尔斯曼,Christopher Houghton,4.9,https://movie.douban.com/subject/27072222/,触不到的爱
,Dennis O'Rourke,7.4,https://movie.douban.com/subject/2221058/,食人之旅
"Andy Cichannowsky,Samuel Evans,David G. Virgo","Adam Arkin,Felix Staica",5.1,https://movie.douban.com/subject/6524295/,归宿
"塔拉·雷德,凯恩·霍德尔,比尔·莫斯利,内森·琼斯",Chris Sun,4.6,https://movie.douban.com/subject/25885743/,查理的农场
"詹姆斯·梅森,海伦·米伦,杰克·麦高恩",迈克尔·鲍威尔,5.9,https://movie.douban.com/subject/1303857/,沙滩上的夏娃
,Karl Zwicky,3.7,https://movie.douban.com/subject/5158274/,辛巴达与牛头怪
"琼·希克森,唐纳德·普利森斯,索菲娅·沃德,艾德里安·鲁基斯",Christopher Petit,7.7,https://movie.douban.com/subject/2370625/,加勒比海之谜
"理查德·劳斯伯格,凯特·布兰切特,弗兰西丝·奥康纳",切瑞·诺兰,6.4,https://movie.douban.com/subject/1295510/,旧欢如梦
"朱莉·加耶,让-皮埃尔·马里埃尔,洛兰特·道驰",Luc Vinciguerra,8.0,https://movie.douban.com/subject/5382900/,圣诞老人接班人
"Jai Abberton,Koby Abberton,Sunny Abberton","Sunny Abberton,Russell Crowe",7.6,https://movie.douban.com/subject/2032251/,麻饶布拉区少年
"Peter O'Toole,Earle Cross,Judy Nunn",,7.4,https://movie.douban.com/subject/4709190/,血字的研究
彼得·芬奇,尤里斯·伊文思,7.0,https://movie.douban.com/subject/3585017/,印度尼西亚在呼唤
"Kestie Morassi,Simon Stone,Mark Leonard Winter",Michael Henry,6.9,https://movie.douban.com/subject/3742952/,过失
"理查德·格林,大卫·菲尔德,大卫·罗伯茨,Brendan Donoghue",大卫·菲尔德,5.8,https://movie.douban.com/subject/26264595/,囚犯
"史蒂夫·雷尔斯巴克,奥丽维娅·赫西,迈克尔·克雷格",Brian Trenchard-Smith,5.2,https://movie.douban.com/subject/3004829/,集中营狩猎
,,8.7,https://movie.douban.com/subject/10355080/,冲浪运动的故事
"Rosanna Arquette,Jamie Babbit,Jami Bernard,Catherine Breillat,Heather Matarazzo",Lisa Ades,7.2,https://movie.douban.com/subject/4156309/,青少年的非主流启蒙
"Guy Pearce,Sam Neill,Miranda Otto",Simone North,4.9,https://movie.douban.com/subject/2137125/,如何在9周内改变
"Dore Kraus,Ralph Cotterill,Gia Carides,Rick Adams,Lloyd Morris",Andrew Prowse,7.3,https://movie.douban.com/subject/5423514/,葛雷奥特曼 戈迪斯的反击
伊文·莱斯利,Ben Briand,7.2,https://movie.douban.com/subject/19973315/,白色恋人
"保罗·贝坦尼,查理·孔杜,比利·博伊德,休·杰克曼,凯特·布兰切特","黛博拉-李·福奈丝,伊里纳·道格拉斯,William Garcia,Paul Holmes,马克·帕兰斯基",6.9,https://movie.douban.com/subject/1916825/,迷失灵魂的素描像
"茅瑛,乔治·拉扎贝,丁佩",黄枫,5.4,https://movie.douban.com/subject/2082276/,铁金刚大破紫阳观
,Sophia Turkiewicz,7.7,https://movie.douban.com/subject/25907959/,曾经的母亲
"贾斯蒂恩·瓦戴尔,迈克尔·韦瑟利,马修·塞特尔,苏菲·蒙克,伊丽莎白·瑞丝",彼得·博格丹诺维奇,7.2,https://movie.douban.com/subject/2074157/,娜塔丽·伍德之谜
"尼克·泰特,Simon Burke",弗雷德·谢皮西,7.2,https://movie.douban.com/subject/1301134/,恶魔的游乐场
"John Barrett,Andreas M. Antonopoulos,Jeffrey A. Tucker","Michael Watchulonis,Torsten Hoffmann",7.0,https://movie.douban.com/subject/26580191/,比特币：货比的终极形态
"Hugo Weaving,Jacqueline McKenzie,Emma Lung",Craig Monahan,7.0,https://movie.douban.com/subject/2567310/,蜜桃
"Danny Baldwin,Holly Baldwin,Harley Bennick",Jon Hewitt,6.4,https://movie.douban.com/subject/3154333/,掘杀游戏
"瑞切尔·格里菲斯,沙妮·文森,理查德·E·格兰特",马克·哈特利,5.7,https://movie.douban.com/subject/10773230/,帕特里克
"Judy Davis,Sam Neill,Richard Roxburgh,Rachel Griffiths,Geoffrey Rush",彼得 邓肯 (Peter Duncan (II)),7.1,https://movie.douban.com/subject/1302892/,革命小子
"Tom Selleck,Laura San Giacomo,Alan Rickman",西蒙·温瑟,6.6,https://movie.douban.com/subject/1800590/,捍卫游侠
"Richard Chamberlain,Amanda Donohoe",Kevin James Dobson,5.3,https://movie.douban.com/subject/1477904/,棘鸟：离别的岁月
,David Blyth,4.6,https://movie.douban.com/subject/1301150/,割脑行尸
"Rody Claude,Kenny Low,Jessica Hegarty",Rody Claude,3.1,https://movie.douban.com/subject/25798269/,死区时间
"Elizabeth Blackmore,Zara Zoe,Monica Zanetti",Jon Leahy,7.7,https://movie.douban.com/subject/24846487/,Skin Deep
Rae Johnston,Lucas Testro,5.6,https://movie.douban.com/subject/26838198/,"I'm You, Dickhead"
"乔·肯尼迪,杰弗里·拉什",吉利恩 阿姆斯特朗 (Gillian Armstrong),6.6,https://movie.douban.com/subject/1306414/,摇滚梦
"罗伯特·赫普曼,鲁道夫·努里耶夫,Lucette Aldous","罗伯特·赫普曼,鲁道夫·努里耶夫",8.5,https://movie.douban.com/subject/2223907/,唐吉诃德
"Jan Barham,Ronald Colman,Eliana Amparo Apaza Espillico",Steven Gorelick,7.9,https://movie.douban.com/subject/5365714/,幸福经济学
"布莱丹·格里森,丹尼尔·麦克弗森,汤姆·伯林森",西蒙·温瑟,6.4,https://movie.douban.com/subject/5152347/,奖杯
"泽维尔·塞缪尔,摩根·格莉芬,林肯·刘易斯,Eddie Baroo,Tessa James",Tim Ferguson,5.6,https://movie.douban.com/subject/26797429/,脱轨
Laura Dekker,Jillian Schlesinger,8.0,https://movie.douban.com/subject/21334726/,首航
"Caro Meldrum-Hanna,Wayne Harley",Kerry O'Brien,7.0,https://movie.douban.com/subject/25894422/,失踪：MH370
"杰弗里·拉什,伊文·莱斯利,尼古拉斯·霍普,山姆·尼尔,米兰达·奥图",Simon Stone,6.3,https://movie.douban.com/subject/25982742/,女儿
"Brooke Young,Taylor Young,David Ruby,Hershel Savage,J. Hartman",Cal Vista（卡尔、威斯塔公司）,5.4,https://movie.douban.com/subject/2972671/,双重惊喜
本·戈登,Ben Gordon,9.4,https://movie.douban.com/subject/11507154/,Home is For the Heartless
"汤姆·卡罗尔,罗斯·克拉克-琼斯","贾斯汀·麦克米兰,克里斯托弗·内柳斯",7.6,https://movie.douban.com/subject/11584453/,风暴冲浪者
黛布拉-李·弗勒斯 Deborra-Lee Furness,Dean O'Flaherty,4.8,https://movie.douban.com/subject/3312004/,寻找杀人犯
"Steve Irwin,Terri Irwin",John Stainton,9.0,https://movie.douban.com/subject/2073834/,鳄鱼先生
"马特·卢卡斯,大卫·威廉姆斯",,8.7,https://movie.douban.com/subject/3309373/,小不列颠：澳大利亚
"雨果·维文,泽维尔·塞缪尔,罗伯特·泰勒",Craig Monahan,7.8,https://movie.douban.com/subject/21850464/,愈合
"Jacinda Barrett,Richard Roxburgh",Nadia Tass,7.2,https://movie.douban.com/subject/4181126/,悲喜两重天
"詹姆斯·斯派德,凯拉·塞吉维克,海伦·米伦,安妮·班克罗夫特,杰弗里·怀特",西德尼·吕美特,6.6,https://movie.douban.com/subject/1298600/,医院人生
米切尔·霍普,Jonathan Burton,6.2,https://movie.douban.com/subject/26591742/,好的，妈妈
"雨果·维文,艾比·考尼什,沙利文·斯特普尔顿",Andrew Kotatko,6.1,https://movie.douban.com/subject/2055686/,万事成空
"Julia Blake,Charles 'Bud' Tingwell",Paul Cox,7.4,https://movie.douban.com/subject/1298451/,回首念真情
"Basia A'Hern,Penne Hackforth-Jones,诺妮·哈泽赫斯,瑞斯·穆尔东",Christopher Weekes,6.2,https://movie.douban.com/subject/4234875/,痛苦与扭曲
"Norman Kaye,Alyson Best,Chris Haywood",Paul Cox (I),5.9,https://movie.douban.com/subject/1297222/,花痴
"凯西·贝茨,鲁伯特·艾弗雷特,彼得·萨斯加德,梅雷蒂斯·伊顿,琳恩·雷德格瑞夫",P·J·霍根,7.7,https://movie.douban.com/subject/2296254/,无条件的爱
Alex Scott,John Weiley,7.6,https://movie.douban.com/subject/3117704/,活力太阳
"艾瑞克·巴纳,杰里米·克拉克森,菲尔·麦格劳",艾瑞克·巴纳,7.1,https://movie.douban.com/subject/3397651/,爱上野兽
Rachel Ward,Arch Nicholson,6.9,https://movie.douban.com/subject/3016112/,血腥堡垒
"Nick Giannopoulos,Vince Colosimo,Alex Dimitriades,Zeta Makrypoulia,Kevin Sorbo",Peter Andrikidis,5.2,https://movie.douban.com/subject/3872149/,时来运转2：米科诺斯岛国王
"Jonathan Whitmore,Greg Poole",Russell Scott,8.6,https://movie.douban.com/subject/24089637/,探秘宇宙
,Aidan Prewett,6.4,https://movie.douban.com/subject/4135727/,我，我自己和Ipod
"卡兰·麦克奥利菲,瑞切尔·格里菲斯,安东尼·拉帕格利亚",罗伯特·康诺利,6.2,https://movie.douban.com/subject/10773231/,阿桑奇的隐秘生活
苏珊·普赖尔,詹妮弗·肯特,7.3,https://movie.douban.com/subject/5999380/,怪物
"Lola Marceli,Alice Ansara,Lourdes Bartolom,Silvio Ofria,Simon Palomares",Steve Jacobs,6.3,https://movie.douban.com/subject/1299438/,西班牙女人
Daniel Schultz,Benjamin Zaugg,7.1,https://movie.douban.com/subject/3285381/,The Room
"吉米·巴姆博,丹尼尔·利辛,Lachy Hulme,Paul O'Brien",Kelly Dolen,6.6,https://movie.douban.com/subject/3681222/,义警我来也
"拉达·米切尔,乔尔·埃哲顿,伊莎贝尔·卢卡斯,杰瑞米·西姆斯,Samrat Chakrabarti",克莱尔·麦卡锡,6.4,https://movie.douban.com/subject/4313943/,等待之城
"Amanda Agostinelli,Lauren Andris,Samantha Beaty",Clay Glen,5.9,https://movie.douban.com/subject/25750641/,第二次机会
吕聿来,周全,5.6,https://movie.douban.com/subject/5161162/,下落
,Kelly Dolen,3.9,https://movie.douban.com/subject/3117803/,地狱无门
鲁伯特·雷德,安德鲁·陶克吉 ,3.9,https://movie.douban.com/subject/24869840/,丛林屠场
杰克·戴维斯,雷米·薛普斯,6.5,https://movie.douban.com/subject/10600091/,迹象
,多米尼克·何欧斯顿,6.2,https://movie.douban.com/subject/5265208/,鳗鱼
"汤姆·伯林森,妮可·基德曼,Jill Perryman,查尔斯‘巴德’汀格维尔,Simon Chilvers",Vincent Monton,6.2,https://movie.douban.com/subject/1464407/,浪峰上的爱
"梅尔·吉布森,山姆·尼尔,张艾嘉",蒂姆·伯斯塔,4.9,https://movie.douban.com/subject/1295627/,Z字特攻队
,,8.9,https://movie.douban.com/subject/2136619/,U2: Zoo TV Live from Sydney
,,7.5,https://movie.douban.com/subject/21359402/,彼端
"Tristan Barr,Lucas Linehan,Rohana Hayes",Lee Galea,5.4,https://movie.douban.com/subject/20426253/,野兽派
"Lidiya Liberman,Flavius Gordea,Marius Bizau,Inga Chiriac",Carlo Sironi,8.0,https://movie.douban.com/subject/11598792/,Cargo
"Svetozar Cvetkovic,Denissa Dér,Ioana Flora",Goran Rebic,7.4,https://movie.douban.com/subject/1466920/,多瑙，多瑙
"Akos Armont,Hayley Magnus",Kevin Lim,6.5,https://movie.douban.com/subject/24690379/,Lichen
"香努·艾诗琳,詹姆斯·弗雷泽,本杰明·马修斯",Madeline Kelly,7.0,https://movie.douban.com/subject/25954764/,19岁
"Kerrie Roberts,Chris Theo,Kane Robinson",Maggie Lawrence,6.3,https://movie.douban.com/subject/5176192/,空白点
,Nick Morris,9.3,https://movie.douban.com/subject/3425819/,AC/DC: Stiff Upper Lip Live
,"Robin Anderson,Bob Connolly,Dennis O'Rourke",8.2,https://movie.douban.com/subject/1438314/,第一次接触
,Rick Birch,7.8,https://movie.douban.com/subject/11531367/,2000年第27届悉尼奥运会开幕式
