movie_cast_cn,movie_director_cn,movie_douban_score,movie_douban_url,movie_name_cn
"麦斯·米科尔森,托玛斯·博·拉森,安妮卡·韦德科普,拉丝·弗格斯托姆,苏西·沃德",托马斯·温特伯格,9.0,https://movie.douban.com/subject/6985810/,狩猎
"埃迪·雷德梅恩,艾丽西亚·维坎德,本·卫肖,塞巴斯蒂安·科赫,艾梅柏·希尔德",汤姆·霍珀,8.1,https://movie.douban.com/subject/3071604/,丹麦女孩
"大卫·罗尔,布莱丹·格里森,丽莎·汉尼根,菲奥纽拉·弗拉纳根,露西·奥康奈尔",汤姆·摩尔,8.7,https://movie.douban.com/subject/11584019/,海洋之歌
"妮可·基德曼,哈里特·安德森,劳伦·白考尔,保罗·贝坦尼,詹姆斯·肯恩",拉斯·冯·提尔,8.4,https://movie.douban.com/subject/1298759/,狗镇
"比约克,凯瑟琳·德纳芙,大卫·摩斯,彼得·斯特曼,乌多·基尔",拉斯·冯·提尔,8.3,https://movie.douban.com/subject/1291562/,黑暗中的舞者
"夏洛特·甘斯布,斯特兰·斯卡斯加德,斯塔西·马汀,希亚·拉博夫,克里斯蒂安·史莱特",拉斯·冯·提尔,7.7,https://movie.douban.com/subject/6827727/,女性瘾者：第一部
"克里斯·普拉特,威尔·法瑞尔,伊丽莎白·班克斯,威尔·阿奈特,连姆·尼森","菲尔·罗德,克里斯托弗·米勒",7.9,https://movie.douban.com/subject/3927734/,乐高大电影
"劳米·拉佩斯,迈克尔·恩奎斯特,彼得·哈贝尔,大卫·丹席克",涅尔斯·阿登·欧普勒夫,7.5,https://movie.douban.com/subject/3217894/,龙纹身的女孩
"夏洛特·甘斯布,斯特兰·斯卡斯加德,斯塔西·马汀,希亚·拉博夫,杰米·贝尔",拉斯·冯·提尔,7.7,https://movie.douban.com/subject/10792650/,女性瘾者：第二部
"罗兰·默勒,米克尔·福尔斯加德,路易斯·霍夫曼,乔尔·巴斯曼,埃米尔·贝尔顿",马丁·赞里维特,8.5,https://movie.douban.com/subject/26591654/,地雷区
"阿卡塞尔·亨涅,西诺薇·玛考迪·伦德,尼古拉·科斯特-瓦尔道,Eivind Sander,尤莉·奥尔嘉",莫滕·泰杜姆,7.6,https://movie.douban.com/subject/5155038/,猎头游戏
"约翰·威德伯格,托马茨·兰斯米尔,尼娜·贡克,马莉卡·拉格尔克朗斯,伯恩·谢尔曼",波·维德伯格,7.1,https://movie.douban.com/subject/1303031/,教室别恋
"克斯汀·邓斯特,夏洛特·甘斯布,基弗·萨瑟兰,夏洛特·兰普林,约翰·赫特",拉斯·冯·提尔,6.9,https://movie.douban.com/subject/4086853/,忧郁症
"米卡埃尔·佩斯布兰特,崔娜·蒂虹,马库斯·瑞格德,威廉·约翰·奈尔森,乌尔里奇·汤姆森",苏珊娜·比尔,8.3,https://movie.douban.com/subject/3338879/,更好的世界
"朱丽娅·斯蒂尔斯,卢克·梅伯利,米兰达·理查森,本·米勒,詹姆斯·福克斯",马莎·库利奇,6.6,https://movie.douban.com/subject/1309124/,王子与我
"布里吉特·尼尔森,拉斯·米克尔森,史文-欧尔·托尔森,拉克·温特·安德森","Kresten Vestbjerg Andersen,索布约恩·克里斯托弗森",7.0,https://movie.douban.com/subject/6015756/,野蛮人罗纳尔
,陈为军,8.5,https://movie.douban.com/subject/2267155/,请为我投票
"戴文·沃克海瑟,丝柯·泰勒-考普顿",Barbara Topsøe-Rothenborg,6.2,https://movie.douban.com/subject/3288397/,初恋从打嗝开始
"卡里·希耶塔拉赫蒂,沃科·霍瓦塔,尤哈·韦约宁,埃里克·卡尔森,艾丽娜·克尼赫蒂莱","卡里·尤索宁,乔根·莱尔丹",5.9,https://movie.douban.com/subject/10511636/,极地大冒险2
"威廉·达福,夏洛特·甘斯布",拉斯·冯·提尔,7.1,https://movie.douban.com/subject/3040418/,反基督者
"拉斯·米克尔森,苏菲·格拉宝,哈拉尔德·凯泽·赫尔曼,艾伯特·鲁德贝克·林哈特,劳里斯·斯科夫高·安德森",杰斯珀·W·尼尔森,8.7,https://movie.douban.com/subject/26390631/,总有一天
"约翰内斯·昆科,丽莎·洛文·孔斯利,克里斯托弗·海维尤,布拉迪·科贝特",鲁本·奥斯特伦德,7.4,https://movie.douban.com/subject/7155005/,游客
丽芙·乌曼,Torill Kove,8.4,https://movie.douban.com/subject/1963066/,丹麦诗人
"艾丽·范宁,阿比·丽,贝拉·希思科特,吉娜·马隆,卡尔·格洛斯曼",尼古拉斯·温丁·雷弗恩,6.2,https://movie.douban.com/subject/6860147/,霓虹恶魔
"艾米丽·沃森,斯特兰·斯卡斯加德,凯特琳·卡特利吉,让-马克·巴尔,阿德里安·劳林斯",拉斯·冯·提尔,8.1,https://movie.douban.com/subject/1292468/,破浪
"艾丽西亚·维坎德,麦斯·米科尔森,米克尔·福尔斯加德,崔娜·蒂虹,大卫·丹席克",尼科莱·阿尔赛,6.9,https://movie.douban.com/subject/3179741/,皇室风流史
"克拉斯·邦,伊丽莎白·莫斯,多米尼克·威斯特,泰瑞·诺塔里,克里斯托弗·莱索",鲁本·奥斯特伦德,7.7,https://movie.douban.com/subject/26610229/,方形
"阿伽塔·特泽布霍夫斯卡,阿伽塔·库莱沙,大卫·奥格尼克,杰吉·特雷拉,亚当·斯齐斯科斯基",保罗·帕夫利克夫斯基,7.7,https://movie.douban.com/subject/24870808/,修女艾达
"瑞恩·高斯林,克里斯汀·斯科特·托马斯,芮塔·彭安,维他亚·潘斯林加姆,汤姆·伯克",尼古拉斯·温丁·雷弗恩,5.6,https://movie.douban.com/subject/5156137/,唯神能恕
"凯瑞·穆里根,马提亚斯·修奈尔,麦克·辛,汤姆·斯图里奇,朱诺·坦普尔",托马斯·温特伯格,6.8,https://movie.douban.com/subject/24716045/,远离尘嚣
"奥莎娜·阿金什那,Artyom Bogucharsky",鲁卡斯·穆迪森,8.2,https://movie.douban.com/subject/1298973/,永远的莉莉亚
"Sergei Dontsov,Valery Gergiev",亚历山大·索科洛夫,7.6,https://movie.douban.com/subject/1302279/,俄罗斯方舟
"贡纳·永松,Ilmur Kristjánsdóttir,Sigurjón Kjartansson,Margrét Helga Jóhannsdóttir,Franziska Una Dagsdóttir",达格·卡利,8.2,https://movie.douban.com/subject/26304901/,处子之山
"亚历桑德拉·达尔斯托姆,瑞贝卡·里尔杰伯格",鲁卡斯·穆迪森,7.7,https://movie.douban.com/subject/1293372/,同窗的爱
"迈克尔·恩奎斯特,劳米·拉佩斯",丹尼尔·阿尔弗雷森,6.7,https://movie.douban.com/subject/3218765/,玩火的女孩
"朱丽叶特·刘易斯,乌多·基尔",塔里克·萨利赫,7.1,https://movie.douban.com/subject/3024983/,地下理想国
"Anwar Congo,Syamsul Arifin,Haji Anif,Sakhyan Asmara",约书亚·奥本海默,8.3,https://movie.douban.com/subject/11538029/,杀戮演绎
"米卡埃尔·佩斯布兰特,阿曼达·奥慕斯,加斯帕·克里斯滕森",扬·特洛尔,8.5,https://movie.douban.com/subject/3154392/,永恒记忆
"刘亦菲,埃米尔·赫斯基,李芳淙,严屹宽,余少群",比利·奥古斯特,6.1,https://movie.douban.com/subject/25865831/,烽火芳菲
"玛利亚·法奥康涅蒂,安托南·阿尔托,安德烈·贝利",卡尔·西奥多·德莱叶,8.7,https://movie.douban.com/subject/1293783/,圣女贞德蒙难记
"迈克尔·恩奎斯特,劳米·拉佩斯",丹尼尔·阿尔弗雷森,7.1,https://movie.douban.com/subject/3750748/,捅马蜂窝的女孩
"Elisabeth Helander,Björn Englund",罗伊·安德森,8.2,https://movie.douban.com/subject/2002696/,你还活着
"斯特凡·奥德朗,博迪尔·谢尔,比吉特·菲德斯皮尔,吉尔·库尔,Jean-Philippe Lafont",加布里埃尔·阿克谢,8.1,https://movie.douban.com/subject/1292278/,巴贝特之宴
"西德格尔·西乌尔乔森,西奥多·尤利乌松,夏洛特·博芬,乔恩·博诺伊森,贡纳·永松",格里莫·哈克纳尔森,7.3,https://movie.douban.com/subject/26353884/,公羊
本基特·卡尔森,罗伊·安德森,8.2,https://movie.douban.com/subject/1295877/,二楼传来的歌声
"兹旦内克·斯维拉克,塔蒂亚娜·维尔赫莫娃,杰里·马哈萨克,丹妮拉·科拉洛娃,Alena Vránová",扬·斯维拉克,8.1,https://movie.douban.com/subject/2003404/,布拉格练习曲
Carsten Knudsen,Mette Rank Tange,8.0,https://movie.douban.com/subject/5279601/,猪命
"帕尔·斯维尔·哈根,安德斯·巴斯莫·克里斯蒂安森,托拜厄斯·桑特尔曼,古斯塔·斯卡斯加德,奥德-马格努斯·威廉森","乔阿吉姆·罗恩尼,艾斯彭·山德伯格",7.1,https://movie.douban.com/subject/5155128/,孤筏重洋
"西瑟·巴比特·科努德森,利斯贝特·达尔,Malene Vilstrup,奥托·勃兰登堡,帕普丽卡·斯汀",贾尼克·哈斯楚,8.4,https://movie.douban.com/subject/1766769/,想做熊的孩子
"Adam Krand,Erik Mogensen",弗雷德里克·萨灵·特勒尔斯-史密斯,7.9,https://movie.douban.com/subject/26337908/,娼妓与野兽
"乌尔里奇·汤姆森,赫宁·莫里岑,托玛斯·博·拉森,帕普丽卡·斯汀,碧尔特·诺伊曼",托马斯·温特伯格,8.2,https://movie.douban.com/subject/1292908/,家宴
"艾丽·哈尔博,卡雅·威尔金斯,亨瑞克·拉斐尔森,艾伦·多丽特·彼得森,格蕾特·艾特瓦",约阿希姆·提尔,6.7,https://movie.douban.com/subject/26755583/,西尔玛
"克拉斯·邦,崔娜·蒂虹",帕尼勒·费舍尔·克里斯藤森,7.2,https://movie.douban.com/subject/1480322/,肥皂
"卢克·梅伯利,Kam Heskin,Clemency Burton-Hill,乔纳森·佛斯,玛瑞·亚达波",Catherine Cyran,5.8,https://movie.douban.com/subject/1510432/,麻雀变王妃2
"皮鲁·埃斯贝克,拉斯·米克尔森,卢卡斯·施瓦兹·索斯坦松",Roni Ezra,7.3,https://movie.douban.com/subject/25958726/,开战日
"雅各布·克德格恩,皮特·泼拉格伯格,Patricia Schumann,海伦娜·赖因科德·纳曼,达尔·萨利姆",托马斯·温特伯格,7.8,https://movie.douban.com/subject/3284392/,潜水艇
"安德鲁斯·威尔森,Henrik Lundström,古斯塔·斯卡斯加德,琳达·齐利亚克斯",米凯尔·哈弗斯特罗姆,8.2,https://movie.douban.com/subject/1434283/,校园规则
"梅丽尔·斯特里普,格伦·克洛斯,杰瑞米·艾恩斯,薇诺娜·瑞德,安东尼奥·班德拉斯",比利·奥古斯特,8.0,https://movie.douban.com/subject/1301480/,金色豪门
"格辛·安东尼,塔姆金·莫钦特,塞巴斯蒂安·阿梅斯托,米勒·迪内森,奥利维亚·格兰特",Mark Raso,7.4,https://movie.douban.com/subject/25772380/,哥本哈根
"贝利·赫维内加拉德,马克斯·冯·叙多夫,埃里克·帕斯卡,比约恩·格拉纳特",比利·奥古斯特,8.6,https://movie.douban.com/subject/1298784/,征服者佩尔
"哈维尔·卡马拉,坎德拉·佩尼亚,胡安·迭戈,费尔南多·特赫罗,麦斯·米科尔森",巴勃罗·贝格尔,7.3,https://movie.douban.com/subject/1463958/,幸福的黄色电影
Rick Kavanian,Michael Hegner,7.1,https://movie.douban.com/subject/1830941/,丑小鸭和小老鼠
"成龙,戴夫·弗兰科,弗莱德·阿米森,库梅尔·南贾尼,迈克尔·佩纳","查理·宾,保罗·费舍尔,鲍勃·洛根",6.2,https://movie.douban.com/subject/25833230/,乐高幻影忍者大电影
"凯特·迪基,托尼·库兰,安德鲁·阿默尔 ,马丁·康普斯顿,娜塔莉·普莱斯",安德里亚·阿诺德,7.2,https://movie.douban.com/subject/1786230/,红色之路
"波笛·约根森,安妮·路易丝·哈辛,托尔斯·利比,尼古拉·雷·卡斯,露易丝·梅瑞兹",拉斯·冯·提尔,7.4,https://movie.douban.com/subject/1302252/,白痴
"加布里埃尔·伯恩,杰西·艾森伯格,伊莎贝尔·于佩尔,戴文·德鲁伊,瑞秋·布罗斯纳安",约阿希姆·提尔,7.0,https://movie.douban.com/subject/10484125/,猛于炮火
"琳赛·霍恩,杰克·休斯顿,马科斯·卡锡,玛雅·哈曾,爱丽丝·格蕾岑",Paddy Breathnach,5.3,https://movie.douban.com/subject/2075710/,死神蘑菇
"巴尔德尔·埃纳尔松,布勒·辛瑞克松,迪尔娅·瓦尔斯多提,卡特拉·尼亚斯多提,约妮娜·索迪斯·卡尔斯多提",古德蒙达尔·阿诺尔·古德蒙松,7.7,https://movie.douban.com/subject/26617395/,心之石
"托尔·林德哈特,Jens Arentzen,拉斯马斯·伯格",安德斯·摩根泰勒,7.6,https://movie.douban.com/subject/1866901/,公主追杀令
"麦斯·米科尔森,尼古拉·雷·卡斯,大卫·丹席克,尼可拉斯·布若,索伦·莫灵",安诺斯·托马斯·延森,7.4,https://movie.douban.com/subject/25800938/,男人与鸡
"麦斯·米科尔森,伊娃·格林,杰弗里·迪恩·摩根,埃里克·坎通纳,米卡埃尔·佩斯布兰特",克里斯蒂安·莱沃,6.9,https://movie.douban.com/subject/24304229/,救世
Sveinn Geirsson,达格·卡利,8.1,https://movie.douban.com/subject/1303877/,航向热带岛屿的冰山
"让-马克·巴尔,巴巴拉·苏科瓦,乌多·基尔,Ernst-Hugo Järegård,Erik Mørk",拉斯·冯·提尔,8.3,https://movie.douban.com/subject/1296116/,欧洲特快车
"克丽丝塔·特瑞特,费奥多尔·阿特金,安东尼·希克林,Loïc Houdré,克洛伊·唐",雷米·沙耶,7.9,https://movie.douban.com/subject/20278795/,漫漫北寻路
约书亚·奥本海默,约书亚·奥本海默,8.5,https://movie.douban.com/subject/25824781/,沉默之像
"杰米·贝尔,比尔·普尔曼,克里斯·欧文,迈克尔·安格拉诺,艾丽森·皮尔",托马斯·温特伯格,7.4,https://movie.douban.com/subject/1309098/,亲爱的温迪
"麦斯·米科尔森,罗夫·拉斯加德,西瑟·巴比特·科努德森",苏珊娜·比尔,7.6,https://movie.douban.com/subject/1875554/,婚礼之后
"乌尔里奇·汤姆森,麦斯·米科尔森,尼可拉斯·布若,帕普丽卡·斯汀,尼古拉·雷·卡斯",安诺斯·托马斯·延森,8.2,https://movie.douban.com/subject/1478398/,亚当的苹果
"朱利安·维斯特,莫里斯·舒茨,瑞纳·曼德尔,西比·施米茨,扬·希罗尼姆科",卡尔·西奥多·德莱叶,7.9,https://movie.douban.com/subject/1300749/,吸血鬼
"Robert Hansen,Sofie Lassen-Kahlke,Sebastian Jessen,Rasmus Albeck,Karl Bille",Tomas Villum Jensen,6.1,https://movie.douban.com/subject/1304695/,初恋从打嗝开始
"托尔·林德哈特,麦斯·米科尔森,斯蒂尼·斯特嘉德,彼得·米金特,Mille Lehfeldt",欧尔·克利斯汀·梅森,7.5,https://movie.douban.com/subject/2009943/,弗莱蒙与希特伦
"皮鲁·埃斯贝克,图娃·诺沃妮,达尔·萨利姆,索伦·莫灵,夏洛特·蒙克",托比亚斯·林道赫姆,6.7,https://movie.douban.com/subject/25962590/,战争
"托尔·林德哈特,Signe Egholm Olsen,尼可拉斯·布若,强·朗格,Anders Heinrichsen",尼科洛·多纳托,7.5,https://movie.douban.com/subject/3376951/,兄弟情
"Kam Heskin,Chris Geere,Adam Croasdell,Todd Jensen,Jonathan Firth",Catherine Cyran,5.5,https://movie.douban.com/subject/3073638/,麻雀变王妃3
"帕普丽卡·斯汀,乌尔里奇·汤姆森,乔纳斯·温施耐德,雅各布·福尔斯·尼加德,松佳·里奇特",奥勒·博内代尔,5.3,https://movie.douban.com/subject/3118551/,代课老师不是人
"保罗·达诺,布莱恩·考克斯",达格·卡利,7.7,https://movie.douban.com/subject/1939174/,一片好心
"詹姆斯·弗兰科,凯特·哈德森,奥玛·希,汤姆·威尔金森,安娜·弗莱尔",亨里克·鲁本·甘茨,5.4,https://movie.douban.com/subject/3439317/,罪恶赎金
"Hanne Agesen,Kirsten Andreasen,Sylvia Eckhausen",卡尔·西奥多·德莱叶,8.3,https://movie.douban.com/subject/1303566/,词语
"汉努-佩卡·约克曼,沃科·霍瓦塔,Vesa Vierikko,Jussi Lampi,里斯托·卡斯基拉赫蒂","Michael Hegner,卡里·尤索宁",6.6,https://movie.douban.com/subject/3012010/,极地大冒险
"乔金·奈特奎斯特,索菲亚·海林,斯特兰·斯卡斯加德",彼得·弗里奇,6.8,https://movie.douban.com/subject/2189763/,圣殿骑士
"艾德文·瑞丁,图娃·诺沃妮,古斯塔夫·汉马斯顿,伦纳特·杰凯尔,西西拉·凯尔",埃斯本·托夫特·雅克伯森,7.6,https://movie.douban.com/subject/25825755/,羽国之旅
"麦斯·米科尔森,杰米·西弗斯,加里·刘易斯",尼古拉斯·温丁·雷弗恩,6.6,https://movie.douban.com/subject/1947078/,日出英烈祠
"Marcin Dorocinski,Sonja Richter",皮尔·弗莱,6.0,https://movie.douban.com/subject/3091716/,思春少妇
"西奥·安哲罗普洛斯,罗曼娜·波琳热,布鲁诺·甘茨,伊莎贝尔·于佩尔,詹姆斯·伊沃里","西奥·安哲罗普洛斯,比森特·阿兰达,约翰·保曼,尤瑟夫·夏因,阿兰·科诺,科斯塔-加夫拉斯,雷蒙·德帕东,拉斯·霍尔斯道姆,彼得·格林纳威,休·赫德森,加斯顿·卡伯,阿巴斯·基亚罗斯塔米,塞德里克·克拉皮斯,安德烈·康查洛夫斯基,斯派克·李,克洛德·勒卢什,比格斯·鲁纳,阿瑟·佩恩,卢西恩·平蒂列,贺玛·桑德斯-勃拉姆斯,杰瑞·沙茨伯格,费尔南多·特鲁埃瓦,丽芙·乌曼,雅克·范·多梅尔,雷吉斯·瓦格涅,维姆·文德斯,吉田喜重,张艺谋,莫扎克·阿洛维奇,加布里埃尔·阿克谢,迈克尔·哈内克,詹姆斯·伊沃里,帕特里斯·勒孔特,大卫·林奇,克洛德·米勒,伊德沙·渥德拉戈,雅克·里维特",7.6,https://movie.douban.com/subject/1389976/,卢米埃尔与四十大导
"保罗·斯科菲尔德,西里尔·库萨克,苏珊·恩格尔,帕特里克·马基,艾琳·沃斯",彼得·布鲁克,7.5,https://movie.douban.com/subject/1304635/,李尔王
"艾丽·范宁,爱丽丝·恩格勒特,克里斯蒂娜·亨德里克斯,安妮特·贝宁,亚历桑德罗·尼沃拉",莎莉·波特,6.5,https://movie.douban.com/subject/6999835/,金吉尔和罗莎
"Steindór Andersen,Björk,Bang Gang",Ari Alexander Ergis Magnússon,8.9,https://movie.douban.com/subject/1768647/,尖叫的经典
"索尔基尔德·鲁斯,丽斯贝斯·穆文,普雷本·勒尔多夫·雷,西格莉德·内耶恩达姆",卡尔·西奥多·德莱叶,8.4,https://movie.douban.com/subject/1305896/,复仇之日
"尼古拉·雷·卡斯,图娃·诺沃妮,劳拉·克里斯滕森,图娃·诺沃妮",卡斯珀·巴福德,5.3,https://movie.douban.com/subject/3244066/,迷魂陷阱
"翁德雷·维特希,克里斯托弗·哈德克,塔拉·菲茨杰拉德,查尔斯·丹斯,奥德里奇•凯瑟",扬·斯维拉克,7.5,https://movie.douban.com/subject/1306843/,烈日长虹
"阿卡塞尔·亨涅,肯·杜肯,斯蒂格·亨里克·霍夫",艾斯彭·山德伯格,6.7,https://movie.douban.com/subject/3231633/,马克斯·马努斯
Nikolaj Rasmussen,Esben Tønnesen,7.7,https://movie.douban.com/subject/4728559/,小小男儿狼
"詹姆斯·麦卡沃伊,凯瑟琳·麦克马克,朱利安·格洛弗,德里克·雅各比,伊恩·哈特",Anders Rønnow-Klarlund,7.2,https://movie.douban.com/subject/1419949/,扯线王子复仇记
克日什托夫·基耶斯洛夫斯基,克日什托夫·维日比茨基,8.8,https://movie.douban.com/subject/1294269/,基耶斯洛夫斯基如是说
"克拉拉·庞特皮单,Elith Pio,Oscar Stribolt",本杰明·克里斯滕森,8.1,https://movie.douban.com/subject/1439560/,女巫
"维果·莫腾森,迭戈·罗曼,格茜塔·诺比,马里亚诺·阿尔塞,维比约克·莫林·阿格尔",利桑德罗·阿隆索,7.3,https://movie.douban.com/subject/20393686/,安乐乡
"帕尔·奥斯卡森,强·朗格",拉姆尔·哈默里克,7.5,https://movie.douban.com/subject/1316555/,年轻的安徒生
"克里斯蒂安·哈尔肯,罗伯特·汉森,劳拉·克里斯滕森,拉斯马斯·伯格",尼科莱·斯蒂恩,8.0,https://movie.douban.com/subject/3238078/,老男孩
"Marijana Jankovic,Casper Crump,Pelle Falk Krusbæk",安德鲁·瓦尔特,6.8,https://movie.douban.com/subject/25777586/,氦
"Kam Heskin,Chris Geere,Jonathan Firth",Catherine Cyran,5.6,https://movie.douban.com/subject/3364262/,麻雀变王妃4
"比尔·斯卡斯加德,海伦·修荷姆 ,Stefan Gödicke,扬·约瑟夫·利费斯,Karl Linnertorp",丽萨· 奥林,7.2,https://movie.douban.com/subject/3543324/,橡树男孩
"Laus Høybye,迪克·凯斯,格伦·利斯·迈斯特",斯文·梅斯林,9.0,https://movie.douban.com/subject/1769053/,克拉姆一家
"Nina Pens Rode,本特·罗斯,Ebbe Rode",卡尔·西奥多·德莱叶,8.1,https://movie.douban.com/subject/1420116/,葛楚
"露丝·拉莫斯,西蒙妮·布奇奥,赫苏斯·梅扎,伊登·比利亚维森西奥,肯尼·约翰斯顿",阿玛特·伊斯卡拉特,5.7,https://movie.douban.com/subject/26653369/,野蛮地区
Esben Benestad,Even Benestad,7.3,https://movie.douban.com/subject/1304739/,父亲的衣柜
邬君梅,亨里克·鲁本·甘茨,7.3,https://movie.douban.com/subject/1439411/,中国先生
"Roger Carel,Lorànt Deutsch,Sara Forestier,Jacques Frantz,Pierre Palmade","Stefan Fjeldmark,Jesper Moller",7.0,https://movie.douban.com/subject/1770038/,高卢英雄大战维京海盗
"Anders Agensø,Peter Bjerg","Ernst Johansen,Lasse Nielsen",7.8,https://movie.douban.com/subject/1786623/,你并不孤单
"加斯帕·克里斯滕森,Peter Gantzler,尼古拉·雷·卡斯",拉斯·斯潘·奥尔森,7.5,https://movie.douban.com/subject/1905666/,盗匪情缘
"Mads Mikkelsen,Erland Josephson,Mikael Persbrandt",Simon Staho,7.5,https://movie.douban.com/subject/1968646/,如今
Pirkko Saisio,皮尔乔·汗卡萨罗,8.3,https://movie.douban.com/subject/1732388/,三个忧郁的房间
"摩根·弗里曼,克里斯蒂安·史莱特,兰迪·奎德",迈克尔·塞洛蒙,6.6,https://movie.douban.com/subject/1297677/,大雨成灾
,Christian Boving-Andersen,7.7,https://movie.douban.com/subject/5200930/,通行坐骑
Refet Abazi,乔舒华·玛斯顿,7.2,https://movie.douban.com/subject/5937923/,血腥的宽恕
"丽芙·乌曼,厄兰·约瑟夫森,伯杰·阿斯特,Julia Dufvenius,Gunnel Fred",英格玛·伯格曼,8.3,https://movie.douban.com/subject/1353734/,萨拉邦德
"埃伦·海德,拉尔斯·博格曼,Julie Grundtvig Wester,Ellen Hillingsø",Christian Tafdrup,7.4,https://movie.douban.com/subject/4017718/,如梦初醒
"迈克尔·埃尔菲克,埃斯蒙德·奈特,Jerold Wells",拉斯·冯·提尔,7.3,https://movie.douban.com/subject/1298734/,犯罪元素
"摄影：Peter Roos Ronald C. Goodman,剪辑：Sune Lund-Sorensen",Sune Lund-Sørensen,8.7,https://movie.douban.com/subject/1873089/,丹麦交响曲
"金·波德尼亚,扎特科·巴瑞克,Laura Drasbæk,麦斯·米科尔森,彼得·安德森",尼古拉斯·温丁·雷弗恩,7.2,https://movie.douban.com/subject/1295855/,末路狂奔
"潘妮拉·奥古斯特,萨穆埃尔·弗洛勒,马克斯·冯·叙多夫,格茜塔·诺比,伦纳特·胡尔斯特罗姆",比利·奥古斯特,8.5,https://movie.douban.com/subject/1292990/,善意的背叛
"布莱丝·达拉斯·霍华德,伊萨赫·德·班克尔,丹尼·格洛弗,威廉·达福,劳伦·白考尔",拉斯·冯·提尔,7.4,https://movie.douban.com/subject/1419943/,曼德勒
"Nis Bank-Mikkelsen,艾伦·瑞克曼,特瑞·琼斯,索伦·希特-拉森, 塞巴斯汀·杰森","施蒂芬·费德马克,Michael Hegner",7.7,https://movie.douban.com/subject/1460846/,小鱼历险记
"盖尔·加西亚·贝纳尔,米歇尔·威廉姆斯",鲁卡斯·穆迪森,7.3,https://movie.douban.com/subject/2143921/,猛犸象
阿曼达·诺克斯,罗德·布莱克赫斯特,6.8,https://movie.douban.com/subject/26857670/,阿曼达·诺克斯
"Adam Tønsberg,拉尔斯·西蒙森,Camilla Søeberg",比利·奥古斯特,7.7,https://movie.douban.com/subject/1293650/,青春岁月
"戴夫·戴森,斯科特·凯克,劳伦斯·马维特",斯特芬·邦·林霍尔姆,7.6,https://movie.douban.com/subject/27007246/,人间失格
"斯蒂芬妮·莱昂,Julie Grundtvig Wester,波笛·约根森,Petrine Agger",Hella Joof,7.5,https://movie.douban.com/subject/3862779/,宝贝，别出声
"尼古拉·雷·卡斯,法瑞斯·法瑞斯,莎拉-索菲·波斯妮娜,Beate Bille",Mikkel Nørgaard,6.7,https://movie.douban.com/subject/25792608/,野鸡杀手
"崔娜·蒂虹,法瑞斯·法瑞斯,乌尔里奇·汤姆森,朱莉·阿尼特·旺,拉斯·兰特",托马斯·温特伯格,6.2,https://movie.douban.com/subject/24696729/,公社
"英格瓦·埃盖特·西古德松,Ágústa Eva Erlendsdóttir",巴塔萨·科马库,6.7,https://movie.douban.com/subject/2270438/,冰岛犯罪现场
"尼古拉·雷·卡斯,法瑞斯·法瑞斯,帕尔·斯维尔·哈根,雅各布·乌尔里克·罗曼,阿曼达·科林",汉斯·皮特·莫郎,6.4,https://movie.douban.com/subject/26353862/,信仰的阴谋
"尼古拉·雷·卡斯,麦斯·米科尔森,Line Kruse,Ole Thestrup,波笛·约根森",安诺斯·托马斯·延森,7.4,https://movie.douban.com/subject/1420074/,绿色屠夫
,陈为军,7.0,https://movie.douban.com/subject/3206663/,世界最大的中国餐馆
"希亚·拉博夫,斯瓦利尔·古德纳松,斯特兰·斯卡斯加德,图娃·诺沃妮,戴维·鲍姆伯",扬努斯·梅兹·彼得森,7.0,https://movie.douban.com/subject/26793860/,博格对战麦肯罗
"琳恩·塞西莉亚·斯贝尔克,米娅·埃里卡·斯贝尔克,玛姬-多丽丝·里姆皮,汉娜·奥斯特罗姆,安德尔斯·伯格",阿曼达·克内尔,7.8,https://movie.douban.com/subject/26717494/,萨米之血
"Simon Gregor 西蒙·格雷格,Jordan Kiziuk 乔丹·基兹克,Patrick Bergin 帕特里克·博根,James Bolam 詹姆斯·伯拉姆",Søren Kragh-Jacobsen,8.6,https://movie.douban.com/subject/1937822/,伯德街小岛
"乔金·奈特奎斯特,索菲亚·海林,斯特兰·斯卡斯加德",彼得·弗里奇,7.5,https://movie.douban.com/subject/3268540/,圣殿骑士之路尽头的国度
"Paul Valjean,Wayne Rodda,Ulla Koppel",Jens Jørgen Thorsen,6.9,https://movie.douban.com/subject/1307365/,在克里奇的平静日子
Mads Mikkelsen,Ole Christian Madsen,7.7,https://movie.douban.com/subject/1968632/,布拉格
"尼古拉·雷·卡斯,法瑞斯·法瑞斯",米凯尔·诺加德,6.8,https://movie.douban.com/subject/20418685/,笼中女人
"文森特·多诺费奥,凯文·考利甘,莲妮·芭拉班,David Rakoff",Joachim Back,7.4,https://movie.douban.com/subject/4186776/,新房客
"Adam Tønsberg,Morten Hoff,Peter Reichhardt,Lone Lindorff,Thomas Nielsen",比利·奥古斯特,8.1,https://movie.douban.com/subject/1293342/,儿童之城
"法瑞斯·法瑞斯,托克尔·彼特森,Göran Ragnerstam",约瑟夫·法斯,6.9,https://movie.douban.com/subject/1849410/,条子骇客
"Atle Antonsen,Kristin Skogheim,阿卡塞尔·亨涅",Rasmus A. Sivertsen,6.7,https://movie.douban.com/subject/3276017/,库尔特是残酷的
"Sarah Juel Werner,Peter Jeppe Hansen",Morten Køhlert,8.0,https://movie.douban.com/subject/1857445/,野丫头
"Valdimar Örn Flygenring,Unnur Ösp Stefánsdóttir",古德蒙达尔·阿诺尔·古德蒙松,7.5,https://movie.douban.com/subject/24525623/,鲸之谷
"法瑞斯·法瑞斯,玛丽·马利克,亚西尔·阿里·马赫,哈妮亚·阿马尔,穆罕默德·尤斯里",塔里克·萨利赫,6.6,https://movie.douban.com/subject/26754097/,尼罗河的希尔顿事件
"帕尔·奥斯卡森,古内尔·林德布洛姆,比吉特·菲德斯皮尔",卡尔森·亨宁,8.3,https://movie.douban.com/subject/1294680/,饥饿
"麦斯·米科尔森,托尔斯·利比,夏洛特·蒙克,皮特·弗丁,尼科莱·斯蒂恩",Hella Joof,6.3,https://movie.douban.com/subject/1775754/,最爱还是他
"Jacob Ottensten,Ulrik Windfeldt-Schmidt",Søren Green Nielsen,6.9,https://movie.douban.com/subject/26348068/,下午
"萨米拉·威利,迈克尔·波茨,玛丽亚·迪齐亚,杰米·哈罗德,托马斯·科帕切",帕可·格罗斯滕,6.2,https://movie.douban.com/subject/26612649/,沉默37人
"拉斯·冯·提尔,尼尔斯·沃塞尔",拉斯·冯·提尔,6.6,https://movie.douban.com/subject/1466223/,瘟疫
"康拉德·布盖,塔拉·爱德丝","彼得·格林纳威,法提赫·阿金,芭芭拉·阿尔伯特,沙鲁纳斯·巴塔斯,Andy Bausch,克里斯托弗·鲍伊,弗朗西斯卡·科曼茨尼,斯泰恩·科宁克斯,托尼·加列夫,Sasa Gedeon,Christos Georgiou,Constantine Giannaris,提奥·凡高,Miguel Hermoso,阿尼亚斯·赫拉尼茨基 ,Arvo Iho,阿基·考里斯马基,戴米恩·科佐勒,莱拉·帕卡莲莉娜,Kenneth Scicluna,马丁·苏力克,玛高扎塔·施莫夫兹卡,贝拉·塔尔,扬·特洛尔,特雷莎·维拉芙尔德,艾斯林·沃什",7.2,https://movie.douban.com/subject/1422097/,欧洲二十五面体
"拉斯·米克尔森,雅各布·克德格恩,劳拉·巴赫,拉克·温特·安德森,Frederik Meldal Nørgaard",比格尔·拉森,5.6,https://movie.douban.com/subject/6059006/,杀戮元凶：狙击手
"Hilmir Snær Guðnason,Victoria Abril,Hanna María Karlsdóttir",Baltasar Kormákur,7.0,https://movie.douban.com/subject/1308022/,冰点下的幸福
"朱莉娅·奥蒙德,加布里埃尔·伯恩,理查德·哈里斯",比利·奥古斯特,6.3,https://movie.douban.com/subject/1293130/,冰雪谜案
"Vanda Duarte,Nuno Vaz,Mariya Lipkina",佩德罗·科斯塔,6.9,https://movie.douban.com/subject/1768144/,骨未成灰
"米卡埃尔·佩斯布兰特,崔娜·蒂虹,比吉特·约尔特·索伦森,伊芙·贝斯特",帕尼勒·费舍尔·克里斯藤森,6.8,https://movie.douban.com/subject/21794463/,你爱的某人
"杰拉丁·卓别林,Alejandra Barros,埃米利洛·艾切瓦利亚,Dominika Paleta,Ofelia Medina",卡尔森·亨宁,6.8,https://movie.douban.com/subject/4019612/,苦妓追忆录
"乔根·莱斯,拉斯·冯·提尔","乔根·莱斯,拉斯·冯·提尔",7.9,https://movie.douban.com/subject/1417054/,五道障碍
"Lucien Dodge,Laura Post,Phillip Sacramento,Zebulon Whatley",Bo Mathorne,8.1,https://movie.douban.com/subject/6311979/,福音之殇
"格茜塔·诺比,帕普丽卡·斯汀,Danica Curcic,莫滕·格伦沃德,皮鲁·埃斯贝克",比利·奥古斯特,7.6,https://movie.douban.com/subject/25855063/,沉默的心
"Asta Nielsen ...  Magda Vang,Robert Dinesen ...  Knud Svane, Magda's fiancé,Poul Reumert ...  Rudolf Stern, circus performer",乌尔班·迦得,7.1,https://movie.douban.com/subject/2134693/,深渊
"比吉特·约尔特·索伦森,索伦·希特-拉森,Tommy Kenter,琳恩·玛丽亚·克里斯滕森,斯瓦利尔·古德纳松",比利·奥古斯特,6.8,https://movie.douban.com/subject/6719697/,玛丽的激情
"麦斯·米科尔森,Leif Sylvester",尼古拉斯·温丁·雷弗恩,7.3,https://movie.douban.com/subject/1812386/,末路狂奔2
,David Borenstein,8.1,https://movie.douban.com/subject/26946275/,梦想帝国
"Kathrine Bremerskov Kaysen ...  Mie,Jakob Wilhjelm Poulsen ...  Ole,Kasper Ruwai Berg Kesje ...  Lille-Per,Sidse Mickelborg ...  Søs,Niels Olsen ...  Far",Claus Bjerre,7.0,https://movie.douban.com/subject/3158902/,一个老爸四个娃
"杰斯帕·艾肖特,Julie Kolbech,Hanne Hedelund,Rita Angela,布贾内·亨里克森",Peter Schønau Fog,7.7,https://movie.douban.com/subject/1966691/,哭泣的艺术
,Lauren Greenfield,7.7,https://movie.douban.com/subject/7015734/,凡尔赛宫的女王
"Yvette,Solbjørg Højfeldt,Anne-Lise Gabold",拉斯·冯·提尔,6.6,https://movie.douban.com/subject/1472339/,夜心曲
,Kresten Vestbjerg Andersen,7.6,https://movie.douban.com/subject/1432882/,校园惊魂记
丹麦士兵,扬努斯·梅兹·彼得森,7.6,https://movie.douban.com/subject/4826414/,阿玛迪罗
"Frank Hvam,加斯帕·克里斯滕森,Mia Lyhne,艾本·叶尤,Lars Hjortshøj",Mikkel Nørgaard,6.8,https://movie.douban.com/subject/5334376/,小丑电影版
"皮鲁·埃斯贝克,奥玛尔·沙加威,杜菲·阿尔-加布尔,罗兰·默勒","托比亚斯·林道赫姆,迈克尔·诺尔",6.5,https://movie.douban.com/subject/4288471/,狱中困斗
"莱昂纳多·迪卡普里奥,托比·马奎尔,珍妮·刘易斯",R·D·罗伯,6.6,https://movie.douban.com/subject/1866235/,唐的梅子餐厅
,Markku Heikkinen,7.5,https://movie.douban.com/subject/4328268/,钙片时代
"松佳·里奇特,尼古拉·雷·卡斯,麦斯·米科尔森",苏珊娜·比尔,7.3,https://movie.douban.com/subject/1305229/,窗外有情天
"爱德华·斯诺登,乔治·W· 布什,巴拉克·奥巴马,Dianne Feinstein,朱利安·阿桑奇",Poul-Erik Heilbuth,7.8,https://movie.douban.com/subject/26367434/,斯诺登的大逃亡
"加斯帕·克里斯滕森,琳恩·玛丽亚·克里斯滕森,皮鲁·埃斯贝克,安妮·路易丝·哈辛,Line Kruse",帕尼勒·费舍尔·克里斯藤森,6.7,https://movie.douban.com/subject/4250500/,一家人
"沃尔特·斯勒扎克,马克斯·奥青格尔,诺拉·格雷戈尔",卡尔·西奥多·德莱叶,8.2,https://movie.douban.com/subject/1756266/,麦克尔
"Aidan Quinn,Iain Glen,Marc Warren,Dudley Sutton,Alan Devlin",Aisling Walsh,8.1,https://movie.douban.com/subject/1432494/,给坏小子的歌
"Torben Bille,Anne Sparrow,Tony Eades,Clara Keller,Werner Hedman",Vidal Raski,5.3,https://movie.douban.com/subject/2133923/,落魄贵妇与她的畸形儿
"乌多·基尔,Kirsten Olesen,亨宁·詹森",拉斯·冯·提尔,7.5,https://movie.douban.com/subject/1464065/,美狄亚
"Martin Buch,米勒·迪内森,Rasmus Botoft,乔治·凯特,Natalie Madueño",Mikkel Munch-Fals,6.0,https://movie.douban.com/subject/26694809/,换爱大冒险
"Laus Høybye,迪克·凯斯,格伦·利斯·迈斯特",斯文·梅斯林,9.0,https://movie.douban.com/subject/1775004/,克拉姆一家2
,Martin Strange-Hansen,8.2,https://movie.douban.com/subject/1963679/,满足欲望
"Klaus Mulbjerg,Nikolaj Lie Kaas,Maria Bonnevie",克里斯托弗·鲍伊,7.4,https://movie.douban.com/subject/1309072/,爱情拼图
"Lisa Lindgren,迈克尔·恩奎斯特,Emma Samuelsson,Sam Kessel,古斯塔夫·汉马斯顿",鲁卡斯·穆迪森,7.6,https://movie.douban.com/subject/1306611/,在一起
"尼古拉·科斯特-瓦尔道,苏菲·格拉宝,金·波德尼亚",奥勒·博内代尔,6.8,https://movie.douban.com/subject/1294001/,看夜更
"艾德·斯克林,克莱尔·陈,蒂埃里·汉西斯,多米尼克·奥伯恩,马可·艾索",迈德·麦特森,5.7,https://movie.douban.com/subject/26298251/,模特
"克劳斯·尼森,乔根·莱斯",乔根·莱斯,8.0,https://movie.douban.com/subject/1421881/,完美的人
扎特科·巴瑞克,尼古拉斯·温丁·雷弗恩,7.2,https://movie.douban.com/subject/1812388/,末路狂奔3
"Sara Langebæk Gaarmann,Lucas Munk Billing,Anders W. Berthelsen",Nikolaj Arcel,5.3,https://movie.douban.com/subject/3044396/,亡魂岛
"彦斯·阿尔比努斯,Peter Gantzler,弗里德里克·索尔·弗里德里克松,本尼迪克·埃灵格松,艾本·叶尤",拉斯·冯·提尔,6.7,https://movie.douban.com/subject/1946690/,真假老板
"John Ashcroft,约翰·麦凯恩",Eugene Jarecki,7.9,https://movie.douban.com/subject/1766800/,我们为何而战
"Rosalinde Mynster,Johan Philip Asbæk,Jens Jørn Spottag",Niels Arden Oplev,7.4,https://movie.douban.com/subject/3190302/,两个世界
"Julie Grundtvig Wester,Christian Heldbo Wienberg,Nicklas Svale Andersen",Kasper Barfoed,5.9,https://movie.douban.com/subject/1900105/,圣殿骑士的宝藏
"Nicolas Wollesen,Mads Hjulmand,Sofie Topp-Duss",Peter Lavrsen,6.1,https://movie.douban.com/subject/26600493/,暗夜放纵
,"Kresten Vestbjerg Andersen,Thorbjørn Christoffersen,Craig Frank",6.7,https://movie.douban.com/subject/3142368/,土星之旅
"安德斯·帕瑟森,丽贝卡·赫姆斯,尼古拉·雷·卡斯,夏洛特·菲奇,德建·库克",奥勒·博内代尔,7.3,https://movie.douban.com/subject/3043577/,再次上演的爱情故事
"乔纳斯·温施耐德,Christian Damsgaard",Anders Helde,6.7,https://movie.douban.com/subject/20469542/,不会游泳的男孩
"瑞贝卡·艾米莉·萨楚普,雅各布·奥福特布罗,埃伦·海德,玛利亚·邦妮薇,索伦·莫灵",肯尼斯·凯恩斯,5.4,https://movie.douban.com/subject/25977814/,女巫斗恶龙
"Auður Drauma Bachmann,Þorsteinn Bachmann,Kristín Davíðsdóttir",鲁纳·鲁纳森,7.7,https://movie.douban.com/subject/6123863/,火山
"Ulrich Thomsen,Jens Jørn Spottag,John Martinus,Ole Thestrup,Farshad Kholghi",Anders Thomas Jensen,7.0,https://movie.douban.com/subject/1472338/,选举之夜
"皮鲁·埃斯贝克,索伦·莫灵,达尔·萨利姆,罗兰·默勒,Gary Skjoldmose Porter",托比亚斯·林道赫姆,6.8,https://movie.douban.com/subject/11528260/,怒海劫运
"布贾内·亨里克森,安妮·路易丝·哈辛,Thomas Morris,Eric Madsen,Nick Wilder",安妮-格莱斯·贝加拉·里斯,6.7,https://movie.douban.com/subject/6876253/,抵抗行动
"Benjamin Gabrielsen,Oliver Methling Søndergaard,Thomas Baldus,Christine Albeck Børge",安德斯·瓦尔特,7.7,https://movie.douban.com/subject/20423594/,9米
雅各布·克德格恩,达格·卡利,7.7,https://movie.douban.com/subject/1472935/,黑马
"阿德里安·劳林斯,雪莉·亨德森",罗勒·莎菲,7.1,https://movie.douban.com/subject/1461573/,威尔伯想自杀
Denmark,Martin Strange-Hansen,6.9,https://movie.douban.com/subject/1472914/,迷人的男子
杰森·贝特曼,"基夫·戴维森,Daniel Junge",8.5,https://movie.douban.com/subject/25897206/,乐高积木世界
"Thorsten Flinck,Goran Marjanovic",鲁卡斯·穆迪森,5.3,https://movie.douban.com/subject/1401918/,兽性斗室
"安德斯·帕瑟森,Anette Støvelbæk,安·伊莲诺拉·约根森,Peter Gantzler,Lars Kaalund",罗勒·莎菲,7.3,https://movie.douban.com/subject/1297695/,意大利语初级课程
,Henrik Ruben Genz,7.3,https://movie.douban.com/subject/3129588/,极度快乐
格茜塔·诺比,本特·哈默,7.6,https://movie.douban.com/subject/3047736/,奥霍顿
"杰昆·菲尼克斯,克莱尔·丹妮丝,西恩·潘,道格拉斯·韩歇尔,艾伦·阿姆斯特朗",托马斯·温特伯格,5.8,https://movie.douban.com/subject/1307595/,爱情疑云
"托尔·林德哈特,Signe Egholm Olsen,Claus Riis Østergaard,Farshad Kholghi",欧尔·克利斯汀·梅森,7.8,https://movie.douban.com/subject/1433598/,摇摆天使
"艾丽西亚·维坎德,玛吉塔阿林,西蒙·J·伯杰",丽莎·朗塞斯,7.0,https://movie.douban.com/subject/19907456/,宾馆
"Nikolaj Lie Kaas,Nicolas Bro,Lærke Winther Andersen",Jannik Johansen,6.6,https://movie.douban.com/subject/1834414/,黑暗
"迪克·凯斯,格伦·利斯·迈斯特,Benjamin Rothenborg Vibe",斯文·梅斯林,8.9,https://movie.douban.com/subject/1775005/,克拉姆一家3
Timo Äikäs,Michael Madsen,7.8,https://movie.douban.com/subject/4883045/,走向永恒
"Morten Kirkskov,Simon Munk",Carlos Augusto de Oliveira,6.7,https://movie.douban.com/subject/4156851/,三个夏天
"皮尔斯·布鲁斯南,金·波德尼亚,崔娜·蒂虹,帕普丽卡·斯汀,Christiane Schaumburg-Müller",苏珊娜·比尔,6.6,https://movie.douban.com/subject/6059294/,你需要的就是爱
"Neel Rønholt,Mikkel Arendt,Jon Lange",Martin Barnewitz,4.2,https://movie.douban.com/subject/3241868/,205号房
"Bent Mejding,Anders W. Berthelsen",Niels Arden Oplev,7.8,https://movie.douban.com/subject/1907573/,我们必胜
"佩特妮拉·巴克,斯蒂格·亨里克·霍夫,伊芙·卡塞思·罗斯腾",埃里克·普派,7.6,https://movie.douban.com/subject/1732392/,奥斯陆的夏威夷
"乔纳唐·斯潘格,Christian Damsgaard",雅克伯·塞森,7.2,https://movie.douban.com/subject/2075399/,埃里克·尼采的早年生活
"Mads Mikkelsen,Iben Hjejle,Nikolaj Lie Kaas",Anders Thomas Jensen,7.6,https://movie.douban.com/subject/1478395/,闪烁恶人心
Torben Skjødt Jensen,Torben Skjødt Jensen,7.6,https://movie.douban.com/subject/1420117/,我的工作
"杰西柏.亚索荷特(Jesper Asholt),艾本·叶尤 Iben Hjejle",索伦克拉雅布克森(Soren Kragh-Jacobsen),7.4,https://movie.douban.com/subject/1306699/,敏郎悲歌
"萨穆埃尔·弗洛勒,特赖恩·帕里森,佩内洛普·克鲁兹",Peter Ringgaard,8.0,https://movie.douban.com/subject/1800351/,天堂的气味
"Helge Nissen,Jacob Texiere,Hallander Helleman,Ebon Strandin,约翰·梅尔",卡尔·西奥多·德莱叶,8.0,https://movie.douban.com/subject/1939879/,撒旦日记
"玛利亚·邦妮薇,热拉尔·德帕迪约,克里斯托弗·埃克莱斯顿",奥勒·博内代尔,6.9,https://movie.douban.com/subject/1432617/,我是迪娜
"阿斯特里德·霍尔姆,Karin Nellemose,Mathilde Nielsen,Clara Schønfeld,Petrine Sonne",卡尔·西奥多·德莱叶,7.0,https://movie.douban.com/subject/1506869/,一屋之主
"伊达·德文格,Andrea Vagn Jensen,Jacob Grosen",尼尔斯·马尔姆洛斯,7.3,https://movie.douban.com/subject/3276019/,爱之伤痕
,Mads Brügger,7.6,https://movie.douban.com/subject/5189779/,红色礼堂
"杰斯·英格斯勒夫,凯瑟琳·布雷莫斯科娃·凯森,卡斯珀·鲁威·伯格·凯西亚,西德斯·迈克伯格,尼尔斯·奥尔森",克劳斯·比尔里,7.0,https://movie.douban.com/subject/3231409/,一个老爸四个娃2
"康妮·尼尔森,乌尔里奇·汤姆森,尼古拉·雷·卡斯,萨拉·朱尔·威纳",苏珊娜·比尔,7.8,https://movie.douban.com/subject/1433525/,兄弟
"金·波德尼亚,麦斯·米科尔森,扎特科·巴瑞克,丽芙·考菲克森,丽克·路易丝·安德森",尼古拉斯·温丁·雷弗恩,7.0,https://movie.douban.com/subject/1890885/,血流不止
Hakon Ahnfelt-Rønne,卡尔·西奥多·德莱叶,7.4,https://movie.douban.com/subject/1939878/,逝去的时光
"Coco C.P. Dalbert,Sammy Salomon,Gbatokai Dakinah",Morten Lindberg,5.8,https://movie.douban.com/subject/2005842/,天外黑基
"洛特·安德森,尼尔斯·奥尔森,Wencke Barfoed",卡斯珀·巴福德,6.8,https://movie.douban.com/subject/2082214/,小鬼闯埃及
,亨里克·比耶勒高·克劳森,6.9,https://movie.douban.com/subject/25711132/,孤独还剩多久
,Christophe Peladan,6.7,https://movie.douban.com/subject/25817025/,古得多
"金·波德尼亚,大卫·丹席克,尼古拉·雷·卡斯,崔娜·蒂虹,Carsten Bjørnlund",安妮特·欧森,5.7,https://movie.douban.com/subject/10750012/,射手
"麦斯·米科尔森,亚历山大·斯卡斯加德",Peter Lindmark,6.6,https://movie.douban.com/subject/1968641/,人性的弱点
,,8.5,https://movie.douban.com/subject/25779121/,终极工厂: 乐高积木
"Mads Mikkelsen,Gabriela Marcinkova,Karl Fischer",Asger Leth,7.4,https://movie.douban.com/subject/20391408/,车轮上的欧洲
韦克莱夫·让,"Asger Leth,Milos Loncarevic",8.3,https://movie.douban.com/subject/2027967/,无仁义之城
"Frederik Christian Johansen,Lars Brygmann,Birthe Neumann",亨里克·鲁本·甘茨,8.3,https://movie.douban.com/subject/1857206/,宝贝霍德
"Kim Bodnia,Tomas Villum Jensen",Lasse Spang Olsen,6.8,https://movie.douban.com/subject/1480345/,盗匪情怀
,Esben Toft Jacobsen,7.2,https://movie.douban.com/subject/3562400/,森林里的熊先生
"Karl Wagner,Marianne Groth Svendsen",Morten Arnfred,6.9,https://movie.douban.com/subject/4324996/,哥本哈根综合症
"尼古拉·科斯特-瓦尔道,麦斯·米科尔森,Nukâka,Pálína Jónsdóttir,Jón Sigurbjörnsson",西蒙·斯塔何,7.3,https://movie.douban.com/subject/1968660/,牵制
"Anneke von der Lippe,Peter Snickars,Thomas Kretschmann",Leidulv Risan,7.4,https://movie.douban.com/subject/3276001/,冰雪前线
奥利弗·古鲁内尔,阿尔伯特·派恩,7.0,https://movie.douban.com/subject/1306963/,挑战未来
"尤汉·乌尔夫萨克,Alex Anton,Anneli Karppinen",皮尔乔·汗卡萨罗,7.0,https://movie.douban.com/subject/25705832/,水泥之夜
埃伦·海德,Balder Skånstrøm-Bo,5.7,https://movie.douban.com/subject/10528337/,沸裂
琳恩·玛丽亚·克里斯滕森,迈克尔·诺尔,6.2,https://movie.douban.com/subject/21264270/,西北区
"斯蒂尼·斯特嘉德,乔纳斯·温施耐德,克拉拉·玛丽亚·巴哈蒙德丝,雅各布·克德格恩",摩根斯·哈格多恩,5.2,https://movie.douban.com/subject/3988767/,诅咒
"迈尔斯·安德森,罗曼娜·波琳热,大卫·布拉德利",克里斯蒂安·莱沃,7.5,https://movie.douban.com/subject/1306413/,国王不死
"皮鲁·埃斯贝克,西瑟·巴比特·科努德森,大卫·丹席克,安德斯·帕瑟森,Anette Støvelbæk",涅尔斯·阿登·欧普勒夫,6.7,https://movie.douban.com/subject/25962588/,疾走马丁
"Peter Gantzler,波笛·约根森,安·伊莲诺拉·约根森,Lars Kaalund",罗勒·莎菲,5.7,https://movie.douban.com/subject/2276904/,超自然学院
"彼得·米金特,米勒·迪内森,罗伯特·汉森,薇比珂·哈斯特伦,Thomas Levin",马丁·米克-雷纳德,6.4,https://movie.douban.com/subject/25797842/,非洲大冒险
Allan Hyde,Søren Grinderslev Hansen,5.6,https://movie.douban.com/subject/4116999/,请留下
"Anni-Kristiina Juuso,米卡埃尔·佩斯布兰特,Mikkel Gaup",尼尔斯·高普,7.1,https://movie.douban.com/subject/3259615/,科图柯诺反叛
"Jan Gehl,Janette Sadik-Khan,Iqbal Habib",Andreas Dalsgaard,8.4,https://movie.douban.com/subject/20000072/,人的尺度
"尼古拉·科斯特-瓦尔道,乌尔里奇·汤姆森,尼古拉·雷·卡斯,托玛斯·博·拉森,玛利亚·邦妮薇",苏珊娜·比尔,7.5,https://movie.douban.com/subject/25804440/,第二次机会
"Signe Frausig,Lilith Pilgaard,Stefan A. L. Nielsen,Mik Løvenbalch Kirchheiner,Jessica Laurent",Emile Gignoux,6.6,https://movie.douban.com/subject/26976338/,黑暗森林
"Steen Stig Lommer,Per Pallesen",Soren Pilmark,6.3,https://movie.douban.com/subject/1981999/,海默父子
"威廉·鲍德温,艾斯黛拉·沃伦,莎拉·巴特勒,金·波德尼亚,凯蒂娅·温特",Adam Neutzsky-Wulff,4.6,https://movie.douban.com/subject/10749995/,熟悉的陌生人
"贾斯珀·加斯兰特,John Axel Eriksson,Holger Eriksson",贾斯珀·加斯兰特,8.0,https://movie.douban.com/subject/2110516/,再见，福肯伯格
Christian Tafdrup,Carsten Sonder,6.2,https://movie.douban.com/subject/2265042/,漂亮男孩
,拉斯·冯·提尔 Lars von Trier,5.6,https://movie.douban.com/subject/10543759/,你明知逃不了为毛还要逃，逃避你眼前发生的这一切？那是因为你他妈就是个懦夫！
"西尔维奥·贝卢斯科尼,Flavio Briatore,Lele Mora,西蒙娜·文图拉",Erik Gandini,7.8,https://movie.douban.com/subject/4011679/,电视政治
"伊夫林·布洛初,艾瑞克·艾伯纳尼,约翰·雷森",Nathalie Teirlinck,6.6,https://movie.douban.com/subject/26698112/,昨日重现
"Erno Aronsen,Per Berthelsen,Hjalmar Dahl,Per Danker,Hans Fleischer",Inuk Silis Hoegh,7.9,https://movie.douban.com/subject/26308324/,变革之声
,Kim Pagel,8.6,https://movie.douban.com/subject/11639215/,乐高的故事
约阿·凯撒·蒙泰罗,约阿·凯撒·蒙泰罗,7.6,https://movie.douban.com/subject/1303464/,上帝的喜剧
"Elias Samir Al-Sobehi,Khalid Alssubeihi",Omar Shargawi,7.3,https://movie.douban.com/subject/3274418/,安详离开
"Eva Gram Schjoldager,Jan Johansen,Line Arlien-Søborg",尼尔斯·马尔姆洛斯,7.7,https://movie.douban.com/subject/3277214/,智慧树
"Mikkel Mainz Elkjær,Kenneth Ladekjær,Brian Patterson,Mors Nynne,Stine Sæthre",Mikkel Mainz,7.5,https://movie.douban.com/subject/21360462/,回报
"Ulrich Thomsen,Nikolaj Lie Kaas",Tomas Villum JENSEN,6.6,https://movie.douban.com/subject/2136382/,誰才是導演
"汉娜·穆雷,乔什·奥康纳,埃莉·诺克劳利",Jeppe Rønde,4.4,https://movie.douban.com/subject/26305153/,自杀郡
David Winters,迈德·麦特森,6.5,https://movie.douban.com/subject/7015749/,泰迪熊
"Richard Christensen,Christian Engelstoft,Hallander Helleman",卡尔 德莱叶,7.6,https://movie.douban.com/subject/2149547/,审判长
"特罗尔斯•里贝Troels Lyby,克丝汀•罗森卡德斯•迈克尔森Kirstine Rosenkrands Mikkelsen",雅克伯•塞森Jacob Thuesen,6.7,https://movie.douban.com/subject/1436718/,被控者
"斯瓦利尔·古德纳松,图娃·诺沃妮,德建·库克,格茜塔·诺比","Alexander Brøndsted,Antonio Tublen",7.5,https://movie.douban.com/subject/3215140/,原创人生
"安德斯·帕瑟森,崔娜·蒂虹",帕尼勒·费舍尔·克里斯藤森,6.2,https://movie.douban.com/subject/3212017/,舞者
"尼可拉斯·布若,加斯帕·克里斯滕森",克里斯托弗·鲍伊,5.9,https://movie.douban.com/subject/11516315/,性、毒品与税收
乌尔里奇·汤姆森,"Kristian Levring,Kristian Levring",6.6,https://movie.douban.com/subject/3154394/,勿怕我
"NIKOLAJ GROTH,CLARA ROSAGER,Kasper Leisner",Barbara Topsøe-Rothenborg,6.0,https://movie.douban.com/subject/26779389/,一、二、三，现在！
"乌尔里奇·汤姆森,米克尔·福尔斯加德,赛伦·梅尔维尔,埃斯本·司米德·詹森,亨宁·詹森",卡斯珀·巴福德,7.5,https://movie.douban.com/subject/25924203/,92年之夏
"Trine Dyrholm,Troels Lyby,Birthe Neumann",Thomas Borch Nielsen,6.3,https://movie.douban.com/subject/3154391/,阳光巴里和迪斯科蚯蚓
"Anders W. Berthelsen,Maria Bonnevie,Ghita Nørby,Henning Jensen,Lars Mikkelsen",Søren Kragh-Jacobsen,5.4,https://movie.douban.com/subject/2382995/,顶级阴谋
"Kaya Brüel,利斯贝特·达尔,皮特·弗丁,Ditte Gråbøl,Anne Marie Helger","贾尼克·哈斯楚,弗莱明·奎斯特·莫勒",7.7,https://movie.douban.com/subject/3273010/,蚊子骑车大冒险
劳拉·克里斯滕森,克里斯蒂安·E·克里斯蒂安森,7.3,https://movie.douban.com/subject/2146088/,青涩地带
"Lars Brygmann,Nikolaj Coster-Waldau",Jannik Johansen,7.0,https://movie.douban.com/subject/1499803/,窃取伦勃朗
"艾伦·多丽特·彼得森,考斯米娜·斯特拉坦",Ali Abbasi,5.4,https://movie.douban.com/subject/26713634/,谢丽
,Karsten Kjær,8.1,https://movie.douban.com/subject/3024252/,丹麥漫畫風波
Gabriel Pontones,Ulrik Wivel,8.0,https://movie.douban.com/subject/4116150/,Roskilde音乐节
"Nicklas Holck Christensen,Oliver Ryborg,Vigga Bro",Paw Charlie Ravn,7.1,https://movie.douban.com/subject/26339792/,两个朋友
"皮特·泼拉格伯格,索伦·莫灵,托玛斯·博·拉森,雅丽·乔维尔,拉里·杰克·唐森",克里斯蒂娜·罗森达尔,7.3,https://movie.douban.com/subject/25748372/,理想主义者
"凯瑞·福克斯,安娜玛丽亚·玛琳卡,斯蒂芬·迪兰,罗夫·拉斯加德",汉斯-克里斯蒂安·施密德,7.7,https://movie.douban.com/subject/3215159/,控诉风暴
,Jeppe Rønde,7.2,https://movie.douban.com/subject/26811744/,血缘之旅
"Ulrich Thomsen,Lisa Werlinder,Ghita Nørby",Per Fly,7.4,https://movie.douban.com/subject/1418033/,遗产
Ib Koch-Olsen,Carl Theodor Dreyer,6.8,https://movie.douban.com/subject/4816184/,丹麦小村教堂
"Oscar Dietz,Peter Zhelder",Karsten Kiilerich,4.5,https://movie.douban.com/subject/26541459/,阿尔伯特
"Greta Almroth,Hildur Carlberg,Emil Helsengreen,Mathilde Nielsen,Kurt Welin",Carl Theodor Dreyer,7.4,https://movie.douban.com/subject/1939906/,玛格丽特夫人的第四次婚姻
"加斯帕·克里斯滕森,Frank Hvam,Mia Lyhne,Lars Hjortshøj,Carlos Antonio",Mikkel Nørgaard,5.3,https://movie.douban.com/subject/26474304/,永远的小丑
尼可拉斯·布若,Ask Hasselbalch,5.5,https://movie.douban.com/subject/25697375/,蚂蚁男孩
Malene Beltoft Olsen,Aske Bang,3.6,https://movie.douban.com/subject/26962307/,静夜
"伯杰·阿斯特,玛丽·理查德森,厄兰·约瑟夫森,潘妮拉·奥古斯特,安尼塔·布耶尔克",英格玛·伯格曼,7.8,https://movie.douban.com/subject/4071097/,在小丑面前
"乌尔里奇·汤姆森,海伦娜·克里斯坦森,赫宁·莫里岑",Christoffer Boe,7.3,https://movie.douban.com/subject/1756743/,如歌的快板
"尤莉·奥尔嘉,劳拉·克里斯滕森,Neel Rønholt",克里斯蒂安·E·克里斯蒂安森,7.0,https://movie.douban.com/subject/2980416/,在晚上
,拉斯·冯·提尔,6.0,https://movie.douban.com/subject/10534794/,南瓜岛之旅
"Elena Arndt-Jensen,Ellen Hillingsø,Allan Olsen,Nicolaj Kopernikus,Paw Henriksen",Charlotte Sachs Bostrup,6.5,https://movie.douban.com/subject/3240270/,卡拉的世界
,Johan Oettinger,8.0,https://movie.douban.com/subject/20394420/,华沙犹太人区的七分钟
Marianne Høgsbro,Thomas Bjerregaard Nielsen,7.8,https://movie.douban.com/subject/1963681/,游泳的人
"Ingvar Eggert Sigurðsson,Baltasar Kormákur,Hilmir Snær Guðnason",Friðrik Þór Friðriksson,7.5,https://movie.douban.com/subject/1300297/,太虚天使
,Elisabeth Márton,7.3,https://movie.douban.com/subject/1957920/,芳名萨宾娜
,拉斯·冯·提尔,6.9,https://movie.douban.com/subject/10543671/,花
,Mads Brügger,8.1,https://movie.douban.com/subject/6977427/,大使
"拉斯·米克尔森,雅各布·奥福特布罗,松佳·里奇特",乔纳什·亚历山大·阿比,5.9,https://movie.douban.com/subject/25826544/,动物做梦之时
Joseph Koch,Carl Theodor Dreyer,6.9,https://movie.douban.com/subject/2104919/,赶船
,Humphrey Erm,7.4,https://movie.douban.com/subject/26169364/,蜡炬成灰
"Julie Zangenberg,Stefan Pagels Andersen,Mads Ravn",Hans Fabian Wullenweber,6.9,https://movie.douban.com/subject/3130701/,攀岩女孩儿
Efterklang,Andreas Koefoed,7.9,https://movie.douban.com/subject/20491510/,鬼城皮拉米登
"Sister Ambrosija,Mr. Vig",Pernille Rose Grønkjær,7.6,https://movie.douban.com/subject/2136389/,维格先生和修女
"Ted Pappas,Stine Ruge,Danny Thykær",Philip Th.,6.7,https://movie.douban.com/subject/26603697/,女招待
"Emma Leth,Cathrine Bjørn,Amalie Lindegård",Christina Rosendahl,5.9,https://movie.douban.com/subject/2003514/,成人仪式
"拉斯·冯·提尔,妮可·基德曼,保罗·贝坦尼,派翠西娅·克拉克森,杰瑞米·戴维斯",Sami Saif,7.8,https://movie.douban.com/subject/25832628/,狗镇的告白
"费舍·史蒂芬斯,加布里埃尔·曼,David Thornton,吉尔·弗林特",Greg Friedle,6.8,https://movie.douban.com/subject/4025848/,虚情假意
"Einar Sissener,Tove Tellback,Harald Stormoen,Alfhild Stormoen,Oscar Larsen",卡尔·西奥多·德莱叶,5.9,https://movie.douban.com/subject/3111476/,葛罗达的新娘
"安德斯·帕瑟森,Jamie Morton,帕普丽卡·斯汀,Sebastián Estevanez",欧尔·克利斯汀·梅森,7.0,https://movie.douban.com/subject/5155494/,阿根廷超级德比
"Adele Reuter-Eichberg,Vladimir Gajdarov,Polina Piekowskaja",卡尔 西奥多 德莱叶 (Carl Theodor Dreyer),6.4,https://movie.douban.com/subject/3053153/,标号人
"Mille Lehfeldt,Toke Lars Bjarke,Jess Ingerslev",Jan Rahbek,7.0,https://movie.douban.com/subject/5155051/,马可狐猿
"Anneke von der Lippe,Lars Simonsen,Trond Høvik",尼尔斯·马尔姆洛斯,6.2,https://movie.douban.com/subject/1305765/,芭芭拉的情欲世界
Rene Redzepi,Pierre Deschamps,7.1,https://movie.douban.com/subject/26650753/,NOMA 美食風暴
"Elias Munk,Christopher Friis Jensen,Frank Schiellerup,Allan Karlsen",Brian Bang,5.5,https://movie.douban.com/subject/25853007/,为了弟弟
,Carl Theodor Dreyer,6.6,https://movie.douban.com/subject/4816156/,土地來的水
"拉斯·米克尔森,赫宁·莫里岑,Preben Harris,夏洛特·蒙克,夏洛特·菲奇",拉姆尔·哈默里克,6.5,https://movie.douban.com/subject/3292126/,猎头者
Olof Palme,"Kristina Lindström,Maud Nycander",8.4,https://movie.douban.com/subject/10756508/,帕尔梅
,Tom Fassaert 汤姆·法萨厄特,8.4,https://movie.douban.com/subject/26672971/,家庭韵事
"Semra Turan,Nima Nabipour",娜塔莎·雅西,6.2,https://movie.douban.com/subject/3097755/,黑带女郎
,Carl Theodor Dreyer,6.1,https://movie.douban.com/subject/4816199/,斯托斯特姆桥
Ebbe Neergaard,Carl Theodor Dreyer,5.5,https://movie.douban.com/subject/2104819/,好妈妈
"Richard Kruspe,Paul Landers,铁尔·林德曼,Oliver Riedel,Christoph Schneider",Hannes Rossacher,9.1,https://movie.douban.com/subject/26640490/,Rammstein In Amerika
Hergé(archive footage),Anders Østergård,8.3,https://movie.douban.com/subject/1419496/,丁丁和我
"Anu Webster,John Webster",John Webster,8.2,https://movie.douban.com/subject/4116160/,灾难的配方
,菲拉斯·法耶德,8.0,https://movie.douban.com/subject/26928137/,终守阿勒波
Ib Koch-Olsen,卡尔·西奥多·德莱叶,6.7,https://movie.douban.com/subject/2266061/,索伦森
"特拉沃·摩根,乔恩·福斯特,卢·泰勒·普奇",Will Canon,7.3,https://movie.douban.com/subject/3236909/,手足情
"Holger Thaarup,Rune Veber,Christian Hjejle",Thomas Vinterberg,7.3,https://movie.douban.com/subject/5111689/,倒着走的男孩
"Christopher Maltman,Mikhail Petrenko,Elizabeth Futral,Maria Bengtsson,Eric Halfvarson",加斯帕·霍尔腾,5.3,https://movie.douban.com/subject/3829504/,坏小子胡安
,彼得·弗里奇,8.7,https://movie.douban.com/subject/3148654/,鹰之眼
"尼可拉斯·布若,Peter Gantzler,莎拉·约尔特·蒂特莱芙瑟,洛特·安德森,斯蒂尼·斯特嘉德",亨里克·鲁本·甘茨,6.7,https://movie.douban.com/subject/5326782/,对不起，打断一下
Sarah Boberg,安妮特·欧森,6.3,https://movie.douban.com/subject/1421875/,爱在你手心
"金·贝辛格,乔丹·普林蒂斯,塞巴斯蒂安·席佩尔,彼得·斯特曼,索菲·罗伊斯",安德斯·摩根泰勒,4.3,https://movie.douban.com/subject/25851488/,我在这里
Jakob Maqe,Jakob Maqe,6.4,https://movie.douban.com/subject/26598136/,灵魂
"托尔·林德哈特,图娃·诺沃妮,Rosalinde Mynster,Signe Egholm Olsen,Henning Valin Jakobsen",尼科莱·阿尔赛,6.4,https://movie.douban.com/subject/5161424/,关于男人的真相
Helli Louise,Joseph W. Sarno,5.3,https://movie.douban.com/subject/2246444/,老爸，心肝
,Børge Ring,7.0,https://movie.douban.com/subject/2149559/,Run of the Mill
Sven Ludvigsen,Carl Theodor Dreyer,7.0,https://movie.douban.com/subject/3115261/,克罗根与卡隆堡
"Jeff Daniels,Roger Rees",Robert Harmon,6.9,https://movie.douban.com/subject/1297999/,决战怒河
,Bo Juhl Nielsen,6.2,https://movie.douban.com/subject/21339707/,找工作
,弗兰克·皮埃萨奇·波尔森,7.8,https://movie.douban.com/subject/6878021/,血手机
"本杰明·克里斯滕森,Karen Caspersen,Otto Reinwald",本杰明·克里斯滕森,8.3,https://movie.douban.com/subject/2268335/,神秘的X
,Kaspar Astrup Schröder,8.2,https://movie.douban.com/subject/4827911/,中松博士的发明
Georg Rydeberg,卡尔·西奥多·德莱叶,7.0,https://movie.douban.com/subject/3812946/,两个人
"Erik Clausen,Jesper Asholt",Erik Clausen,6.7,https://movie.douban.com/subject/2146092/,一路同行
"彼得·米金特,露易丝·梅瑞兹,赫尔·多勒里斯",马丁·米克-雷纳德,6.4,https://movie.douban.com/subject/6876252/,我姐姐的孩子独自在家
"约翰·特托罗,黛博拉·卡拉·安格",尼古拉斯·温丁·雷弗恩,5.5,https://movie.douban.com/subject/1472909/,恐惧X
"艾本·叶尤,布罗娜·加拉赫,马丁·亨德森,艾文·布莱纳,加里·刘易斯",Søren Kragh-Jacobsen,6.5,https://movie.douban.com/subject/1773597/,甜蜜的美梦
Albert Luther,Carl Theodor Dreyer,6.3,https://movie.douban.com/subject/3113930/,抗癌
"加布里埃尔·伯恩,海伦·米伦,克里斯蒂安·贝尔,布莱恩·考克斯,凯特·贝金赛尔",加布里埃尔·阿克谢,6.2,https://movie.douban.com/subject/1786656/,圣战豪情
"托尔·林德哈特,西瑟·巴比特·科努德森,米克·翁戴尔",Rasmus Heide,6.1,https://movie.douban.com/subject/3266222/,蓝领
,,4.8,https://movie.douban.com/subject/2264858/,祖母情欲日记
"Katja Kean,Anders Nyborg,Alberto Rey",Lisbeth Lynghøft,4.7,https://movie.douban.com/subject/11533370/,红粉监狱
,"Miki Mistrati,U. Roberto Romano",7.5,https://movie.douban.com/subject/5945847/,苦涩的巧克力
"Catherine O'Hara,Jared Leto,Christina Ricci,Gabriel Byrne,Stephen Rea",David Keating,7.4,https://movie.douban.com/subject/1308313/,告别17岁
"Laura Bro,Ellen Hillingsø,Finn Nielsen",Louise Friedberg,7.1,https://movie.douban.com/subject/4082130/,丹麦试验
,雷斯特·霍尔格-马森,8.1,https://movie.douban.com/subject/2382723/,火星之旅
"吉娜·麦基,乌尔里奇·汤姆森",拉尔夫·齐曼,7.2,https://movie.douban.com/subject/1872873/,战火天堂
"Martin Buch,Nicolaj Kopernikus,Mick Øgendahl,Esben Pretzmann",Jørgen Lerdam,6.5,https://movie.douban.com/subject/3627186/,奥森三人帮
"Thomas Bo Larsen,Paw Henriksen,Helle Fagralid",Laurits Munch-Petersen,6.5,https://movie.douban.com/subject/1449440/,Ambulancen
"Slavik Kryklyvyy,Anna Melnikova","Christian Bonke,Andreas Koefoed",8.6,https://movie.douban.com/subject/7163808/,舞林至尊
"赖纳·维尔纳·法斯宾德,伊尔姆·赫尔曼,哈里·贝尔,Lilo Pempeit",Christian Braad Thomsen,7.8,https://movie.douban.com/subject/26284538/,法斯宾德：无索求地爱
Marsha Drokova,Lise Birk Pedersen,6.7,https://movie.douban.com/subject/7015796/,普京之吻
"Helle Dolleris,Henrik Prip,Helene Egelund,Signe Vaupel,Per Linderoth",克里斯蒂安·E·克里斯蒂安森,7.9,https://movie.douban.com/subject/3310468/,双打飞碟
"Danger Mouse,Lawrence Lessig","Ralf Christensen,Andreas Johnsen,Henrik Moltke",7.6,https://movie.douban.com/subject/2357294/,正版，盗版
"Anne Overstall,Gilbert Johnston,Michel Turpel",Reinis Kalnaellis,5.1,https://movie.douban.com/subject/10745105/,黄金马
Sigridur Nielsdottir,"Orri Jonsson,Kristín Björk Kristjánsdóttir,Ingibjörg Birgisdóttir",8.5,https://movie.douban.com/subject/10455671/,罗菲奶奶
"尼尔斯·奥尔森,卡斯珀·鲁威·伯格·凯西亚,凯瑟琳·布雷莫斯科娃·凯森,雅各布·维尔杰姆·鲍尔森",克劳斯·比尔里,7.0,https://movie.douban.com/subject/10471456/,一个老爸四个娃之回归自然
,Sofie Kampmark,7.9,https://movie.douban.com/subject/26330895/,津波
,Mikala Krogh,7.8,https://movie.douban.com/subject/26838743/,报业的衰落
"佩尼拉·奥盖斯特 Pernilla August,Beate Bille,加斯帕·克里斯滕森 Jesper Christensen",Per Fly,7.5,https://movie.douban.com/subject/1532319/,杀人罪行
本·金斯利,Tony Palmer,7.2,https://movie.douban.com/subject/1839721/,见证
,"David Aronowitsch,Hanna Heilborn",6.8,https://movie.douban.com/subject/3792637/,奴隶们
"Jesper Christensen,Marius Sonne Janischefska",Per Fly贝尔·福雷,7.7,https://movie.douban.com/subject/1485362/,长凳
"雅各布·克德格恩,Helle Fagralid,伊达·德文格",尼尔斯·马尔姆洛斯,7.0,https://movie.douban.com/subject/25746089/,悲喜人生
"奥托·勃兰登堡,帕普丽卡·斯汀,利斯贝特·达尔,Axel Strøbye,Thomas Mørk",皮尔·弗莱,6.8,https://movie.douban.com/subject/5140723/,普洛波和贝塔
,Mads Weidner,6.8,https://movie.douban.com/subject/26334910/,丑丑鸟与虎克船长
"Roba Hussen,Masho Hussen,Henriette",Katrine Kjær,7.1,https://movie.douban.com/subject/25762206/,慈悲慈悲－真实的跨国收养
"Eliza Bichmann,Sarah Agor,Nicole Brooks,Jeffrey Colt,Tracy Cooley",Pernille Rose Grønkjær,6.6,https://movie.douban.com/subject/26267350/,恋爱依存症
Ivan Nalbantov,拉莉察·佩特罗娃,5.6,https://movie.douban.com/subject/26739162/,无神
"崔娜·蒂虹,Finn Nielsen",安妮特·欧森,6.7,https://movie.douban.com/subject/3390935/,无名小卒
"罗斯·麦克科尔,克里斯汀·哈格,乌尔里奇·汤姆森,扎恩·迈克拉农,大卫·芬恩",乌尔里奇·汤姆森,4.4,https://movie.douban.com/subject/24838509/,胚胎之内
Janus Dissing Rathke,"Steen Rasmussen,Michael Wikke",7.1,https://movie.douban.com/subject/3032524/,飞翔之家
"劳拉·巴赫,雅各布·克德格恩,拉斯·米克尔森,拉克·温特·安德森,Frederik Meldal Nørgaard",Birger Larsen,7.0,https://movie.douban.com/subject/5159161/,杀人犯
Anousheh Ansari,Berit Madsen,6.2,https://movie.douban.com/subject/25767501/,飞天女
